^E:\졸업작품 최종 프로젝트 및 릴리즈\COMPLETESERVERMODULE(미끄러짐 있는 서버)\ROBBYSERVER\STDAFX.CPP
/c /ZI /nologo /W3 /WX- /sdl /Od /D _DEBUG /D _CONSOLE /D _UNICODE /D UNICODE /Gm /EHsc /RTC1 /MDd /GS /fp:precise /Zc:wchar_t /Zc:forScope /Zc:inline /Yc"stdafx.h" /Fp"X64\DEBUG\ TO X64\DEBUG\LOBBYSERVER\LOBBYSERVER.PCH" /Fo"X64\DEBUG\ TO X64\DEBUG\LOBBYSERVER\\" /Fd"X64\DEBUG\ TO X64\DEBUG\LOBBYSERVER\VC140.PDB" /Gd /TP E:\졸업작품 최종 프로젝트 및 릴리즈\COMPLETESERVERMODULE(미끄러짐 있는 서버)\ROBBYSERVER\STDAFX.CPP
^E:\졸업작품 최종 프로젝트 및 릴리즈\COMPLETESERVERMODULE(미끄러짐 있는 서버)\ROBBYSERVER\LOBBYPROCESS.CPP
/c /ZI /nologo /W3 /WX- /sdl /Od /D _DEBUG /D _CONSOLE /D _UNICODE /D UNICODE /Gm /EHsc /RTC1 /MDd /GS /fp:precise /Zc:wchar_t /Zc:forScope /Zc:inline /Yu"stdafx.h" /Fp"X64\DEBUG\ TO X64\DEBUG\LOBBYSERVER\LOBBYSERVER.PCH" /Fo"X64\DEBUG\ TO X64\DEBUG\LOBBYSERVER\\" /Fd"X64\DEBUG\ TO X64\DEBUG\LOBBYSERVER\VC140.PDB" /Gd /TP E:\졸업작품 최종 프로젝트 및 릴리즈\COMPLETESERVERMODULE(미끄러짐 있는 서버)\ROBBYSERVER\LOBBYPROCESS.CPP
^E:\졸업작품 최종 프로젝트 및 릴리즈\COMPLETESERVERMODULE(미끄러짐 있는 서버)\ROBBYSERVER\LOBBYSERVER.CPP
/c /ZI /nologo /W3 /WX- /sdl /Od /D _DEBUG /D _CONSOLE /D _UNICODE /D UNICODE /Gm /EHsc /RTC1 /MDd /GS /fp:precise /Zc:wchar_t /Zc:forScope /Zc:inline /Yu"stdafx.h" /Fp"X64\DEBUG\ TO X64\DEBUG\LOBBYSERVER\LOBBYSERVER.PCH" /Fo"X64\DEBUG\ TO X64\DEBUG\LOBBYSERVER\\" /Fd"X64\DEBUG\ TO X64\DEBUG\LOBBYSERVER\VC140.PDB" /Gd /TP E:\졸업작품 최종 프로젝트 및 릴리즈\COMPLETESERVERMODULE(미끄러짐 있는 서버)\ROBBYSERVER\LOBBYSERVER.CPP
^E:\졸업작품 최종 프로젝트 및 릴리즈\COMPLETESERVERMODULE(미끄러짐 있는 서버)\ROBBYSERVER\ROOM.CPP
/c /ZI /nologo /W3 /WX- /sdl /Od /D _DEBUG /D _CONSOLE /D _UNICODE /D UNICODE /Gm /EHsc /RTC1 /MDd /GS /fp:precise /Zc:wchar_t /Zc:forScope /Zc:inline /Yu"stdafx.h" /Fp"X64\DEBUG\ TO X64\DEBUG\LOBBYSERVER\LOBBYSERVER.PCH" /Fo"X64\DEBUG\ TO X64\DEBUG\LOBBYSERVER\\" /Fd"X64\DEBUG\ TO X64\DEBUG\LOBBYSERVER\VC140.PDB" /Gd /TP E:\졸업작품 최종 프로젝트 및 릴리즈\COMPLETESERVERMODULE(미끄러짐 있는 서버)\ROBBYSERVER\ROOM.CPP
^E:\졸업작품 최종 프로젝트 및 릴리즈\COMPLETESERVERMODULE(미끄러짐 있는 서버)\ROBBYSERVER\ROOMMANAGER.CPP
/c /ZI /nologo /W3 /WX- /sdl /Od /D _DEBUG /D _CONSOLE /D _UNICODE /D UNICODE /Gm /EHsc /RTC1 /MDd /GS /fp:precise /Zc:wchar_t /Zc:forScope /Zc:inline /Yu"stdafx.h" /Fp"X64\DEBUG\ TO X64\DEBUG\LOBBYSERVER\LOBBYSERVER.PCH" /Fo"X64\DEBUG\ TO X64\DEBUG\LOBBYSERVER\\" /Fd"X64\DEBUG\ TO X64\DEBUG\LOBBYSERVER\VC140.PDB" /Gd /TP E:\졸업작품 최종 프로젝트 및 릴리즈\COMPLETESERVERMODULE(미끄러짐 있는 서버)\ROBBYSERVER\ROOMMANAGER.CPP
^E:\졸업작품 최종 프로젝트 및 릴리즈\COMPLETESERVERMODULE(미끄러짐 있는 서버)\ROBBYSERVER\ROOMRATER.CPP
/c /ZI /nologo /W3 /WX- /sdl /Od /D _DEBUG /D _CONSOLE /D _UNICODE /D UNICODE /Gm /EHsc /RTC1 /MDd /GS /fp:precise /Zc:wchar_t /Zc:forScope /Zc:inline /Yu"stdafx.h" /Fp"X64\DEBUG\ TO X64\DEBUG\LOBBYSERVER\LOBBYSERVER.PCH" /Fo"X64\DEBUG\ TO X64\DEBUG\LOBBYSERVER\\" /Fd"X64\DEBUG\ TO X64\DEBUG\LOBBYSERVER\VC140.PDB" /Gd /TP E:\졸업작품 최종 프로젝트 및 릴리즈\COMPLETESERVERMODULE(미끄러짐 있는 서버)\ROBBYSERVER\ROOMRATER.CPP
^E:\졸업작품 최종 프로젝트 및 릴리즈\COMPLETESERVERMODULE(미끄러짐 있는 서버)\ROBBYSERVER\USER.CPP
/c /ZI /nologo /W3 /WX- /sdl /Od /D _DEBUG /D _CONSOLE /D _UNICODE /D UNICODE /Gm /EHsc /RTC1 /MDd /GS /fp:precise /Zc:wchar_t /Zc:forScope /Zc:inline /Yu"stdafx.h" /Fp"X64\DEBUG\ TO X64\DEBUG\LOBBYSERVER\LOBBYSERVER.PCH" /Fo"X64\DEBUG\ TO X64\DEBUG\LOBBYSERVER\\" /Fd"X64\DEBUG\ TO X64\DEBUG\LOBBYSERVER\VC140.PDB" /Gd /TP E:\졸업작품 최종 프로젝트 및 릴리즈\COMPLETESERVERMODULE(미끄러짐 있는 서버)\ROBBYSERVER\USER.CPP
^E:\졸업작품 최종 프로젝트 및 릴리즈\COMPLETESERVERMODULE(미끄러짐 있는 서버)\ROBBYSERVER\USERMANAGER.CPP
/c /ZI /nologo /W3 /WX- /sdl /Od /D _DEBUG /D _CONSOLE /D _UNICODE /D UNICODE /Gm /EHsc /RTC1 /MDd /GS /fp:precise /Zc:wchar_t /Zc:forScope /Zc:inline /Yu"stdafx.h" /Fp"X64\DEBUG\ TO X64\DEBUG\LOBBYSERVER\LOBBYSERVER.PCH" /Fo"X64\DEBUG\ TO X64\DEBUG\LOBBYSERVER\\" /Fd"X64\DEBUG\ TO X64\DEBUG\LOBBYSERVER\VC140.PDB" /Gd /TP E:\졸업작품 최종 프로젝트 및 릴리즈\COMPLETESERVERMODULE(미끄러짐 있는 서버)\ROBBYSERVER\USERMANAGER.CPP
^E:\졸업작품 최종 프로젝트 및 릴리즈\COMPLETESERVERMODULE(미끄러짐 있는 서버)\LOBBYSERVER\STDAFX.CPP
/c /ZI /nologo /W3 /WX- /sdl /Od /D _DEBUG /D _CONSOLE /D _UNICODE /D UNICODE /Gm /EHsc /RTC1 /MDd /GS /fp:precise /Zc:wchar_t /Zc:forScope /Zc:inline /Yc"stdafx.h" /Fp"X64\DEBUG\ TO X64\DEBUG\LOBBYSERVER\LOBBYSERVER.PCH" /Fo"X64\DEBUG\ TO X64\DEBUG\LOBBYSERVER\\" /Fd"X64\DEBUG\ TO X64\DEBUG\LOBBYSERVER\VC140.PDB" /Gd /TP E:\졸업작품 최종 프로젝트 및 릴리즈\COMPLETESERVERMODULE(미끄러짐 있는 서버)\LOBBYSERVER\STDAFX.CPP
^E:\졸업작품 최종 프로젝트 및 릴리즈\COMPLETESERVERMODULE(미끄러짐 있는 서버)\LOBBYSERVER\LOBBYPROCESS.CPP
/c /ZI /nologo /W3 /WX- /sdl /Od /D _DEBUG /D _CONSOLE /D _UNICODE /D UNICODE /Gm /EHsc /RTC1 /MDd /GS /fp:precise /Zc:wchar_t /Zc:forScope /Zc:inline /Yu"stdafx.h" /Fp"X64\DEBUG\ TO X64\DEBUG\LOBBYSERVER\LOBBYSERVER.PCH" /Fo"X64\DEBUG\ TO X64\DEBUG\LOBBYSERVER\\" /Fd"X64\DEBUG\ TO X64\DEBUG\LOBBYSERVER\VC140.PDB" /Gd /TP E:\졸업작품 최종 프로젝트 및 릴리즈\COMPLETESERVERMODULE(미끄러짐 있는 서버)\LOBBYSERVER\LOBBYPROCESS.CPP
^E:\졸업작품 최종 프로젝트 및 릴리즈\COMPLETESERVERMODULE(미끄러짐 있는 서버)\LOBBYSERVER\LOBBYSERVER.CPP
/c /ZI /nologo /W3 /WX- /sdl /Od /D _DEBUG /D _CONSOLE /D _UNICODE /D UNICODE /Gm /EHsc /RTC1 /MDd /GS /fp:precise /Zc:wchar_t /Zc:forScope /Zc:inline /Yu"stdafx.h" /Fp"X64\DEBUG\ TO X64\DEBUG\LOBBYSERVER\LOBBYSERVER.PCH" /Fo"X64\DEBUG\ TO X64\DEBUG\LOBBYSERVER\\" /Fd"X64\DEBUG\ TO X64\DEBUG\LOBBYSERVER\VC140.PDB" /Gd /TP E:\졸업작품 최종 프로젝트 및 릴리즈\COMPLETESERVERMODULE(미끄러짐 있는 서버)\LOBBYSERVER\LOBBYSERVER.CPP
^E:\졸업작품 최종 프로젝트 및 릴리즈\COMPLETESERVERMODULE(미끄러짐 있는 서버)\LOBBYSERVER\ROOM.CPP
/c /ZI /nologo /W3 /WX- /sdl /Od /D _DEBUG /D _CONSOLE /D _UNICODE /D UNICODE /Gm /EHsc /RTC1 /MDd /GS /fp:precise /Zc:wchar_t /Zc:forScope /Zc:inline /Yu"stdafx.h" /Fp"X64\DEBUG\ TO X64\DEBUG\LOBBYSERVER\LOBBYSERVER.PCH" /Fo"X64\DEBUG\ TO X64\DEBUG\LOBBYSERVER\\" /Fd"X64\DEBUG\ TO X64\DEBUG\LOBBYSERVER\VC140.PDB" /Gd /TP E:\졸업작품 최종 프로젝트 및 릴리즈\COMPLETESERVERMODULE(미끄러짐 있는 서버)\LOBBYSERVER\ROOM.CPP
^E:\졸업작품 최종 프로젝트 및 릴리즈\COMPLETESERVERMODULE(미끄러짐 있는 서버)\LOBBYSERVER\ROOMMANAGER.CPP
/c /ZI /nologo /W3 /WX- /sdl /Od /D _DEBUG /D _CONSOLE /D _UNICODE /D UNICODE /Gm /EHsc /RTC1 /MDd /GS /fp:precise /Zc:wchar_t /Zc:forScope /Zc:inline /Yu"stdafx.h" /Fp"X64\DEBUG\ TO X64\DEBUG\LOBBYSERVER\LOBBYSERVER.PCH" /Fo"X64\DEBUG\ TO X64\DEBUG\LOBBYSERVER\\" /Fd"X64\DEBUG\ TO X64\DEBUG\LOBBYSERVER\VC140.PDB" /Gd /TP E:\졸업작품 최종 프로젝트 및 릴리즈\COMPLETESERVERMODULE(미끄러짐 있는 서버)\LOBBYSERVER\ROOMMANAGER.CPP
^E:\졸업작품 최종 프로젝트 및 릴리즈\COMPLETESERVERMODULE(미끄러짐 있는 서버)\LOBBYSERVER\ROOMRATER.CPP
/c /ZI /nologo /W3 /WX- /sdl /Od /D _DEBUG /D _CONSOLE /D _UNICODE /D UNICODE /Gm /EHsc /RTC1 /MDd /GS /fp:precise /Zc:wchar_t /Zc:forScope /Zc:inline /Yu"stdafx.h" /Fp"X64\DEBUG\ TO X64\DEBUG\LOBBYSERVER\LOBBYSERVER.PCH" /Fo"X64\DEBUG\ TO X64\DEBUG\LOBBYSERVER\\" /Fd"X64\DEBUG\ TO X64\DEBUG\LOBBYSERVER\VC140.PDB" /Gd /TP E:\졸업작품 최종 프로젝트 및 릴리즈\COMPLETESERVERMODULE(미끄러짐 있는 서버)\LOBBYSERVER\ROOMRATER.CPP
^E:\졸업작품 최종 프로젝트 및 릴리즈\COMPLETESERVERMODULE(미끄러짐 있는 서버)\LOBBYSERVER\USER.CPP
/c /ZI /nologo /W3 /WX- /sdl /Od /D _DEBUG /D _CONSOLE /D _UNICODE /D UNICODE /Gm /EHsc /RTC1 /MDd /GS /fp:precise /Zc:wchar_t /Zc:forScope /Zc:inline /Yu"stdafx.h" /Fp"X64\DEBUG\ TO X64\DEBUG\LOBBYSERVER\LOBBYSERVER.PCH" /Fo"X64\DEBUG\ TO X64\DEBUG\LOBBYSERVER\\" /Fd"X64\DEBUG\ TO X64\DEBUG\LOBBYSERVER\VC140.PDB" /Gd /TP E:\졸업작품 최종 프로젝트 및 릴리즈\COMPLETESERVERMODULE(미끄러짐 있는 서버)\LOBBYSERVER\USER.CPP
^E:\졸업작품 최종 프로젝트 및 릴리즈\COMPLETESERVERMODULE(미끄러짐 있는 서버)\LOBBYSERVER\USERMANAGER.CPP
/c /ZI /nologo /W3 /WX- /sdl /Od /D _DEBUG /D _CONSOLE /D _UNICODE /D UNICODE /Gm /EHsc /RTC1 /MDd /GS /fp:precise /Zc:wchar_t /Zc:forScope /Zc:inline /Yu"stdafx.h" /Fp"X64\DEBUG\ TO X64\DEBUG\LOBBYSERVER\LOBBYSERVER.PCH" /Fo"X64\DEBUG\ TO X64\DEBUG\LOBBYSERVER\\" /Fd"X64\DEBUG\ TO X64\DEBUG\LOBBYSERVER\VC140.PDB" /Gd /TP E:\졸업작품 최종 프로젝트 및 릴리즈\COMPLETESERVERMODULE(미끄러짐 있는 서버)\LOBBYSERVER\USERMANAGER.CPP
