^E:\졸업작품 최종 프로젝트 및 릴리즈\COMPLETESERVERMODULE(미끄러짐 있는 서버)\LOBBYSERVER\STDAFX.CPP
E:\졸업작품 최종 프로젝트 및 릴리즈\COMPLETESERVERMODULE(미끄러짐 있는 서버)\LOBBYSERVER\X64\DEBUG\ TO X64\DEBUG\LOBBYSERVER\LOBBYSERVER.PCH
E:\졸업작품 최종 프로젝트 및 릴리즈\COMPLETESERVERMODULE(미끄러짐 있는 서버)\LOBBYSERVER\X64\DEBUG\ TO X64\DEBUG\LOBBYSERVER\VC140.PDB
E:\졸업작품 최종 프로젝트 및 릴리즈\COMPLETESERVERMODULE(미끄러짐 있는 서버)\LOBBYSERVER\X64\DEBUG\ TO X64\DEBUG\LOBBYSERVER\VC140.IDB
E:\졸업작품 최종 프로젝트 및 릴리즈\COMPLETESERVERMODULE(미끄러짐 있는 서버)\LOBBYSERVER\X64\DEBUG\ TO X64\DEBUG\LOBBYSERVER\STDAFX.OBJ
^E:\졸업작품 최종 프로젝트 및 릴리즈\COMPLETESERVERMODULE(미끄러짐 있는 서버)\LOBBYSERVER\LOBBYPROCESS.CPP|E:\졸업작품 최종 프로젝트 및 릴리즈\COMPLETESERVERMODULE(미끄러짐 있는 서버)\LOBBYSERVER\LOBBYSERVER.CPP|E:\졸업작품 최종 프로젝트 및 릴리즈\COMPLETESERVERMODULE(미끄러짐 있는 서버)\LOBBYSERVER\ROOM.CPP|E:\졸업작품 최종 프로젝트 및 릴리즈\COMPLETESERVERMODULE(미끄러짐 있는 서버)\LOBBYSERVER\ROOMMANAGER.CPP|E:\졸업작품 최종 프로젝트 및 릴리즈\COMPLETESERVERMODULE(미끄러짐 있는 서버)\LOBBYSERVER\ROOMRATER.CPP|E:\졸업작품 최종 프로젝트 및 릴리즈\COMPLETESERVERMODULE(미끄러짐 있는 서버)\LOBBYSERVER\USER.CPP|E:\졸업작품 최종 프로젝트 및 릴리즈\COMPLETESERVERMODULE(미끄러짐 있는 서버)\LOBBYSERVER\USERMANAGER.CPP
E:\졸업작품 최종 프로젝트 및 릴리즈\COMPLETESERVERMODULE(미끄러짐 있는 서버)\LOBBYSERVER\X64\DEBUG\ TO X64\DEBUG\LOBBYSERVER\VC140.PDB
E:\졸업작품 최종 프로젝트 및 릴리즈\COMPLETESERVERMODULE(미끄러짐 있는 서버)\LOBBYSERVER\X64\DEBUG\ TO X64\DEBUG\LOBBYSERVER\VC140.IDB
E:\졸업작품 최종 프로젝트 및 릴리즈\COMPLETESERVERMODULE(미끄러짐 있는 서버)\LOBBYSERVER\X64\DEBUG\ TO X64\DEBUG\LOBBYSERVER\LOBBYPROCESS.OBJ
E:\졸업작품 최종 프로젝트 및 릴리즈\COMPLETESERVERMODULE(미끄러짐 있는 서버)\LOBBYSERVER\X64\DEBUG\ TO X64\DEBUG\LOBBYSERVER\LOBBYSERVER.OBJ
E:\졸업작품 최종 프로젝트 및 릴리즈\COMPLETESERVERMODULE(미끄러짐 있는 서버)\LOBBYSERVER\X64\DEBUG\ TO X64\DEBUG\LOBBYSERVER\ROOM.OBJ
E:\졸업작품 최종 프로젝트 및 릴리즈\COMPLETESERVERMODULE(미끄러짐 있는 서버)\LOBBYSERVER\X64\DEBUG\ TO X64\DEBUG\LOBBYSERVER\ROOMMANAGER.OBJ
E:\졸업작품 최종 프로젝트 및 릴리즈\COMPLETESERVERMODULE(미끄러짐 있는 서버)\LOBBYSERVER\X64\DEBUG\ TO X64\DEBUG\LOBBYSERVER\ROOMRATER.OBJ
E:\졸업작품 최종 프로젝트 및 릴리즈\COMPLETESERVERMODULE(미끄러짐 있는 서버)\LOBBYSERVER\X64\DEBUG\ TO X64\DEBUG\LOBBYSERVER\USER.OBJ
E:\졸업작품 최종 프로젝트 및 릴리즈\COMPLETESERVERMODULE(미끄러짐 있는 서버)\LOBBYSERVER\X64\DEBUG\ TO X64\DEBUG\LOBBYSERVER\USERMANAGER.OBJ
^E:\졸업작품 최종 프로젝트 및 릴리즈\COMPLETESERVERMODULE(미끄러짐 있는 서버)\LOBBYSERVER\LOBBYPROCESS.CPP
E:\졸업작품 최종 프로젝트 및 릴리즈\COMPLETESERVERMODULE(미끄러짐 있는 서버)\LOBBYSERVER\X64\DEBUG\ TO X64\DEBUG\LOBBYSERVER\VC140.PDB
^E:\졸업작품 최종 프로젝트 및 릴리즈\COMPLETESERVERMODULE(미끄러짐 있는 서버)\LOBBYSERVER\LOBBYSERVER.CPP
E:\졸업작품 최종 프로젝트 및 릴리즈\COMPLETESERVERMODULE(미끄러짐 있는 서버)\LOBBYSERVER\X64\DEBUG\ TO X64\DEBUG\LOBBYSERVER\VC140.PDB
^E:\졸업작품 최종 프로젝트 및 릴리즈\COMPLETESERVERMODULE(미끄러짐 있는 서버)\LOBBYSERVER\ROOM.CPP
E:\졸업작품 최종 프로젝트 및 릴리즈\COMPLETESERVERMODULE(미끄러짐 있는 서버)\LOBBYSERVER\X64\DEBUG\ TO X64\DEBUG\LOBBYSERVER\VC140.PDB
^E:\졸업작품 최종 프로젝트 및 릴리즈\COMPLETESERVERMODULE(미끄러짐 있는 서버)\LOBBYSERVER\ROOMMANAGER.CPP
E:\졸업작품 최종 프로젝트 및 릴리즈\COMPLETESERVERMODULE(미끄러짐 있는 서버)\LOBBYSERVER\X64\DEBUG\ TO X64\DEBUG\LOBBYSERVER\VC140.PDB
^E:\졸업작품 최종 프로젝트 및 릴리즈\COMPLETESERVERMODULE(미끄러짐 있는 서버)\LOBBYSERVER\ROOMRATER.CPP
E:\졸업작품 최종 프로젝트 및 릴리즈\COMPLETESERVERMODULE(미끄러짐 있는 서버)\LOBBYSERVER\X64\DEBUG\ TO X64\DEBUG\LOBBYSERVER\VC140.PDB
^E:\졸업작품 최종 프로젝트 및 릴리즈\COMPLETESERVERMODULE(미끄러짐 있는 서버)\LOBBYSERVER\USER.CPP
E:\졸업작품 최종 프로젝트 및 릴리즈\COMPLETESERVERMODULE(미끄러짐 있는 서버)\LOBBYSERVER\X64\DEBUG\ TO X64\DEBUG\LOBBYSERVER\VC140.PDB
^E:\졸업작품 최종 프로젝트 및 릴리즈\COMPLETESERVERMODULE(미끄러짐 있는 서버)\LOBBYSERVER\USERMANAGER.CPP
E:\졸업작품 최종 프로젝트 및 릴리즈\COMPLETESERVERMODULE(미끄러짐 있는 서버)\LOBBYSERVER\X64\DEBUG\ TO X64\DEBUG\LOBBYSERVER\VC140.PDB
