[FBX_META_DATA]
MeshCount: 1

[MESH_DATA]
VertexCount: 581
IndexCount: 1956
BoneCount: 0
AnimationClips: 0

[VERTEX_DATA]
Position: -0.195514 0.23965 6.95815
Normal: 0.0171005 0.993547 -0.112123
UV: 0.817634 0.0190091

Position: 0.0652066 0.213045 6.76217
Normal: 0.137069 0.988674 -0.0611145
UV: 0.674698 0.209856

Position: 0.0664216 0.239517 6.99335
Normal: 0.137206 0.984228 -0.111669
UV: 0.856732 0.209856

Position: -0.196364 0.21921 6.77332
Normal: 0.0199501 0.997685 -0.0650115
UV: 0.674382 0.0190091

Position: 0.317446 0.169054 6.96404
Normal: 0.255248 0.960644 -0.109596
UV: 0.819698 0.400991

Position: 0.316596 0.148614 6.7792
Normal: 0.252525 0.965589 -0.0621949
UV: 0.676468 0.400991

Position: 0.0720587 0.219367 6.34802
Normal: 0.135619 0.988565 0.0659382
UV: 0.364451 0.209856

Position: 0.329132 0.171521 6.15776
Normal: 0.242056 0.966621 0.0839777
UV: 0.222471 0.400991

Position: 0.323447 0.154936 6.36505
Normal: 0.24354 0.967646 0.0659501
UV: 0.372448 0.400991

Position: 0.0777423 0.235952 6.14073
Normal: 0.135616 0.987303 0.0827135
UV: 0.213121 0.209856

Position: 0.0675669 0.20994 6.55603
Normal: 0.136421 0.990482 0.0183142
UV: 0.518653 0.209856

Position: 0.318956 0.145508 6.57306
Normal: 0.247113 0.968825 0.0176901
UV: 0.523724 0.400991

Position: -0.183828 0.242117 6.15187
Normal: 0.0269121 0.996394 0.08046
UV: 0.220428 0.0190091

Position: -0.189512 0.225531 6.35916
Normal: 0.0261742 0.997707 0.0624202
UV: 0.370388 0.0190091

Position: -0.194004 0.216104 6.56718
Normal: 0.0241714 0.999604 0.0143762
UV: 0.521647 0.0190091

Position: 0.0619529 -0.0584199 6.96046
Normal: -0.995143 0.0164028 -0.0970621
UV: 0.817634 0.0190091

Position: 0.0855552 0.20059 6.76224
Normal: -0.989483 0.136748 -0.0471534
UV: 0.674698 0.209856

Position: 0.0626265 0.203813 6.99372
Normal: -0.985779 0.136663 -0.0977903
UV: 0.856732 0.209856

Position: 0.0795591 -0.0608748 6.77538
Normal: -0.998564 0.0195998 -0.0498625
UV: 0.674382 0.0190091

Position: 0.132637 0.454566 6.96166
Normal: -0.962159 0.254603 -0.0970996
UV: 0.819698 0.400991

Position: 0.150243 0.452111 6.77659
Normal: -0.966398 0.252208 -0.0496541
UV: 0.676468 0.400991

Position: 0.0728898 0.20385 6.34817
Normal: -0.987456 0.136197 0.0798863
UV: 0.364451 0.209856

Position: 0.117818 0.459259 6.15543
Normal: -0.965264 0.242739 0.0966574
UV: 0.222471 0.400991

Position: 0.137578 0.455371 6.36252
Normal: -0.966558 0.244101 0.0786195
UV: 0.372448 0.400991

Position: 0.0531305 0.207738 6.14108
Normal: -0.985958 0.136197 0.0966319
UV: 0.213121 0.209856

Position: 0.0855025 0.201162 6.55607
Normal: -0.990091 0.136662 0.0323022
UV: 0.518653 0.209856

Position: 0.150191 0.452683 6.57042
Normal: -0.968453 0.247342 0.0303458
UV: 0.523724 0.400991

Position: 0.0471347 -0.0537266 6.15423
Normal: -0.99505 0.027617 0.0954612
UV: 0.220428 0.0190091

Position: 0.0668941 -0.0576145 6.36132
Normal: -0.996636 0.0267491 0.0774705
UV: 0.370388 0.0190091

Position: 0.0795065 -0.0603028 6.56921
Normal: -0.999267 0.0243983 0.0295002
UV: 0.521647 0.0190091

Position: -0.00959858 -0.427823 5.15631
Normal: 0.0901986 -0.67502 0.732265
UV: 0.674382 0.0190091

Position: 0.27122 -0.32505 5.21585
Normal: 0.297942 -0.584325 0.754847
UV: 0.674698 0.209856

Position: 0.0796453 -0.589461 5.02279
Normal: 0.0548517 -0.614416 0.787074
UV: 0.817634 0.0190091

Position: 0.38359 -0.528675 5.05018
Normal: 0.262988 -0.520328 0.812463
UV: 0.856732 0.209856

Position: 0.60393 -0.309483 5.03251
Normal: 0.456767 -0.399097 0.795038
UV: 0.819698 0.400991

Position: 0.514687 -0.147845 5.16603
Normal: 0.488987 -0.461162 0.74042
UV: 0.676468 0.400991

Position: 0.0472364 0.0705065 5.7976
Normal: 0.386028 -0.742768 0.547064
UV: 0.213121 0.209856

Position: 0.290703 0.247711 5.74779
Normal: 0.56512 -0.625059 0.538462
UV: 0.222471 0.400991

Position: 0.114523 -0.046999 5.59058
Normal: 0.377419 -0.726837 0.573814
UV: 0.364451 0.209856

Position: 0.35799 0.130205 5.54077
Normal: 0.557508 -0.606662 0.566697
UV: 0.372448 0.400991

Position: 0.431503 0.00064185 5.34348
Normal: 0.534318 -0.554838 0.637698
UV: 0.523724 0.400991

Position: 0.188036 -0.176563 5.3933
Normal: 0.349783 -0.67764 0.646881
UV: 0.518653 0.209856

Position: -0.233581 -0.0322672 5.73806
Normal: 0.189835 -0.826096 0.530593
UV: 0.220428 0.0190091

Position: -0.166295 -0.149772 5.53104
Normal: 0.178001 -0.810043 0.5587
UV: 0.370388 0.0190091

Position: -0.0927822 -0.279335 5.33376
Normal: 0.145801 -0.763129 0.629584
UV: 0.521647 0.0190091

Position: -0.328075 0.480264 5.61847
Normal: -0.58953 0.252312 0.767328
UV: 0.674382 0.0190091

Position: -0.402592 0.186525 5.65722
Normal: -0.634747 0.0296175 0.772153
UV: 0.674698 0.209856

Position: -0.514557 0.510788 5.49017
Normal: -0.519272 0.242822 0.819386
UV: 0.817634 0.0190091

Position: -0.63743 0.224796 5.49813
Normal: -0.561321 0.0187124 0.827387
UV: 0.856732 0.209856

Position: -0.583504 -0.0785066 5.45634
Normal: -0.57413 -0.208265 0.791834
UV: 0.819698 0.400991

Position: -0.397022 -0.109029 5.58464
Normal: -0.644624 -0.195186 0.739164
UV: 0.676468 0.400991

Position: -0.0713232 -0.171928 5.95003
Normal: -0.805666 -0.155563 0.571579
UV: 0.372448 0.400991

Position: -0.0768939 0.123626 6.02262
Normal: -0.800008 0.0590504 0.597077
UV: 0.364451 0.209856

Position: 0.067966 -0.201996 6.15299
Normal: -0.825444 -0.149259 0.544394
UV: 0.222471 0.400991

Position: 0.0623957 0.0935592 6.22557
Normal: -0.818662 0.0615405 0.570969
UV: 0.213121 0.209856

Position: -0.223857 -0.140996 5.75716
Normal: -0.748859 -0.171344 0.640196
UV: 0.523724 0.400991

Position: -0.229427 0.15456 5.82975
Normal: -0.742604 0.0482392 0.667991
UV: 0.518653 0.209856

Position: 0.136913 0.387298 6.18682
Normal: -0.774196 0.27182 0.571606
UV: 0.220428 0.0190091

Position: -0.00237617 0.417366 5.98386
Normal: -0.753596 0.270237 0.59922
UV: 0.370388 0.0190091

Position: -0.15491 0.448299 5.79099
Normal: -0.695329 0.26456 0.668226
UV: 0.521647 0.0190091

Position: -0.947194 0.500893 4.58258
Normal: -0.499858 0.159198 0.851351
UV: 0.817634 0.0190091

Position: -0.684956 0.514722 4.73532
Normal: -0.57331 0.153385 0.804853
UV: 0.674382 0.0190091

Position: -0.701357 0.116246 4.79885
Normal: -0.573024 -0.0722891 0.816344
UV: 0.674698 0.209856

Position: -1.0313 0.0987202 4.60976
Normal: -0.49609 -0.0676509 0.865632
UV: 0.856732 0.209856

Position: -0.887219 -0.282657 4.55548
Normal: -0.466489 -0.292019 0.834933
UV: 0.819698 0.400991

Position: -0.624982 -0.268828 4.70822
Normal: -0.540627 -0.294226 0.788133
UV: 0.676468 0.400991

Position: -0.150121 -0.251009 5.16157
Normal: -0.715917 -0.291321 0.634503
UV: 0.372448 0.400991

Position: -0.226498 0.134065 5.25219
Normal: -0.750699 -0.0803124 0.655744
UV: 0.364451 0.209856

Position: 0.0585247 -0.245482 5.41709
Normal: -0.738263 -0.289774 0.609097
UV: 0.222471 0.400991

Position: -0.0178508 0.139592 5.50772
Normal: -0.77112 -0.0817105 0.631425
UV: 0.213121 0.209856

Position: -0.375104 -0.258379 4.92054
Normal: -0.653013 -0.293797 0.698039
UV: 0.523724 0.400991

Position: -0.451481 0.126695 5.01116
Normal: -0.688105 -0.077805 0.721428
UV: 0.518653 0.209856

Position: -0.00144939 0.538068 5.44419
Normal: -0.769256 0.131353 0.625294
UV: 0.220428 0.0190091

Position: -0.210096 0.532541 5.18866
Normal: -0.74712 0.13453 0.650933
UV: 0.370388 0.0190091

Position: -0.435078 0.525171 4.94763
Normal: -0.684857 0.142131 0.714681
UV: 0.521647 0.0190091

Position: 0.701878 0.374966 4.4609
Normal: 0.519177 0.248399 0.817774
UV: 0.674382 0.0190091

Position: 0.425384 0.653849 4.55102
Normal: 0.3551 0.400201 0.844833
UV: 0.674698 0.209856

Position: 0.869026 0.588175 4.32099
Normal: 0.473869 0.18768 0.860363
UV: 0.817634 0.0190091

Position: 0.635662 0.921914 4.37806
Normal: 0.306115 0.338389 0.889824
UV: 0.856732 0.209856

Position: 0.258699 1.08351 4.34273
Normal: 0.123173 0.471176 0.873396
UV: 0.819698 0.400991

Position: 0.0915505 0.870301 4.48264
Normal: 0.171207 0.529256 0.831009
UV: 0.676468 0.400991

Position: -0.212646 0.473186 4.91259
Normal: 0.290643 0.665442 0.687541
UV: 0.372448 0.400991

Position: -0.0129577 0.0787297 5.22615
Normal: 0.481482 0.562718 0.671955
UV: 0.213121 0.209856

Position: -0.346791 0.295182 5.15778
Normal: 0.306705 0.682572 0.663345
UV: 0.222471 0.400991

Position: 0.121187 0.256734 4.98096
Normal: 0.468003 0.545917 0.694945
UV: 0.364451 0.209856

Position: -0.068295 0.662973 4.68267
Normal: 0.246855 0.616815 0.747397
UV: 0.523724 0.400991

Position: 0.265538 0.446521 4.75105
Normal: 0.428126 0.494058 0.756713
UV: 0.518653 0.209856

Position: 0.263536 -0.200153 5.13604
Normal: 0.633924 0.4183 0.650511
UV: 0.220428 0.0190091

Position: 0.397681 -0.0221495 4.89085
Normal: 0.621579 0.3983 0.674534
UV: 0.370388 0.0190091

Position: 0.542032 0.167638 4.66093
Normal: 0.585654 0.343394 0.734227
UV: 0.521647 0.0190091

Position: -0.00317064 -0.73607 4.16547
Normal: 0.0534493 -0.587938 0.807138
UV: 0.674382 0.0190091

Position: 0.36392 -0.59022 4.24668
Normal: 0.258191 -0.495783 0.829178
UV: 0.674698 0.209856

Position: 0.123807 -0.970007 4.01806
Normal: 0.0162308 -0.523178 0.852069
UV: 0.817634 0.0190091

Position: 0.523624 -0.884512 4.06429
Normal: 0.221165 -0.427298 0.876643
UV: 0.856732 0.209856

Position: 0.816877 -0.598496 4.02434
Normal: 0.414451 -0.309419 0.855856
UV: 0.819698 0.400991

Position: 0.689901 -0.364559 4.17175
Normal: 0.448376 -0.375837 0.81099
UV: 0.676468 0.400991

Position: 0.027269 0.0239307 4.94182
Normal: 0.354556 -0.672827 0.649303
UV: 0.213121 0.209856

Position: 0.456732 0.0615614 4.61554
Normal: 0.523658 -0.536802 0.661533
UV: 0.372448 0.400991

Position: 0.130752 -0.1641 4.69046
Normal: 0.344632 -0.654392 0.673053
UV: 0.364451 0.209856

Position: 0.35325 0.249591 4.86689
Normal: 0.532504 -0.55787 0.636569
UV: 0.222471 0.400991

Position: 0.567685 -0.140701 4.37902
Normal: 0.497514 -0.47843 0.723592
UV: 0.523724 0.400991

Position: 0.241704 -0.366363 4.45395
Normal: 0.314024 -0.59838 0.737109
UV: 0.518653 0.209856

Position: -0.339821 -0.12192 4.86061
Normal: 0.160923 -0.757379 0.632835
UV: 0.220428 0.0190091

Position: -0.236339 -0.30995 4.60926
Normal: 0.147938 -0.738568 0.657747
UV: 0.370388 0.0190091

Position: -0.125386 -0.512213 4.37275
Normal: 0.112928 -0.684979 0.719757
UV: 0.521647 0.0190091

Position: -0.622418 -1.23457 3.2234
Normal: -0.172403 -0.342732 0.923478
UV: 0.856732 0.209856

Position: -0.994813 -0.90966 3.15391
Normal: -0.370149 -0.236378 0.898396
UV: 0.817634 0.0190091

Position: -0.436063 -0.845872 3.40091
Normal: -0.207618 -0.416013 0.885341
UV: 0.674698 0.209856

Position: -0.846531 -0.60033 3.29794
Normal: -0.401945 -0.307353 0.86254
UV: 0.674382 0.0190091

Position: -0.135545 -1.32502 3.1602
Normal: 0.0339984 -0.431537 0.901454
UV: 0.819698 0.400991

Position: 0.0127365 -1.01569 3.30423
Normal: -0.00140388 -0.500682 0.86563
UV: 0.676468 0.400991

Position: 0.293242 -0.426929 3.77782
Normal: -0.0931969 -0.667097 0.739118
UV: 0.372448 0.400991

Position: -0.0284837 0.0107041 4.15039
Normal: -0.300988 -0.611243 0.731976
UV: 0.213121 0.209856

Position: 0.420315 -0.159115 4.05371
Normal: -0.106044 -0.688634 0.717313
UV: 0.222471 0.400991

Position: -0.155557 -0.257111 3.8745
Normal: -0.290977 -0.590476 0.752775
UV: 0.364451 0.209856

Position: 0.158561 -0.710127 3.52185
Normal: -0.0588923 -0.606886 0.792604
UV: 0.523724 0.400991

Position: -0.290238 -0.540308 3.61853
Normal: -0.261142 -0.527911 0.808156
UV: 0.518653 0.209856

Position: -0.566026 -0.0115693 3.77153
Normal: -0.473817 -0.483401 0.736085
UV: 0.370388 0.0190091

Position: -0.438953 0.256245 4.04742
Normal: -0.482443 -0.506952 0.714316
UV: 0.220428 0.0190091

Position: -0.700707 -0.294767 3.51556
Normal: -0.448589 -0.418814 0.789533
UV: 0.521647 0.0190091

Position: 1.21004 -0.462973 3.50548
Normal: 0.362386 -0.237305 0.901312
UV: 0.817634 0.0190091

Position: 0.935034 0.0312647 3.74618
Normal: 0.465149 -0.0180786 0.885048
UV: 0.674698 0.209856

Position: 1.3653 0.00730694 3.56842
Normal: 0.383984 -0.0136367 0.923239
UV: 0.856732 0.209856

Position: 0.867643 -0.443884 3.64972
Normal: 0.440014 -0.239594 0.865437
UV: 0.674382 0.0190091

Position: 1.25986 0.490116 3.49882
Normal: 0.386003 0.21089 0.898069
UV: 0.819698 0.400991

Position: 0.917458 0.509205 3.64305
Normal: 0.463505 0.20456 0.862159
UV: 0.676468 0.400991

Position: 0.26673 0.547135 4.11703
Normal: 0.65234 0.182714 0.735573
UV: 0.372448 0.400991

Position: -0.0114001 0.0869331 4.49623
Normal: 0.681134 -0.0303249 0.731531
UV: 0.213121 0.209856

Position: -0.0289764 0.564873 4.3931
Normal: 0.677121 0.178925 0.713788
UV: 0.222471 0.400991

Position: 0.284307 0.069195 4.22016
Normal: 0.658124 -0.0290962 0.752347
UV: 0.364451 0.209856

Position: 0.579596 0.528665 3.86088
Normal: 0.583616 0.19173 0.78907
UV: 0.523724 0.400991

Position: 0.597173 0.0507249 3.96401
Normal: 0.588954 -0.0250912 0.807777
UV: 0.518653 0.209856

Position: 0.216915 -0.405954 4.1237
Normal: 0.630001 -0.239344 0.738792
UV: 0.370388 0.0190091

Position: -0.0787912 -0.388216 4.39977
Normal: 0.655051 -0.238467 0.716967
UV: 0.220428 0.0190091

Position: 0.529781 -0.424424 3.86754
Normal: 0.56074 -0.24039 0.792328
UV: 0.521647 0.0190091

Position: -1.15177 1.56458 2.57864
Normal: -0.185758 0.252302 0.949651
UV: 0.856732 0.209856

Position: -0.547108 1.80285 2.5124
Normal: -0.0400334 0.355159 0.933948
UV: 0.817634 0.0190091

Position: -0.814087 1.11449 2.76272
Normal: -0.227367 0.307367 0.924029
UV: 0.674698 0.209856

Position: -0.278415 1.44471 2.66166
Normal: -0.0811144 0.411565 0.907763
UV: 0.674382 0.0190091

Position: -1.54923 1.05053 2.51619
Normal: -0.325788 0.141138 0.934849
UV: 0.819698 0.400991

Position: -1.28054 0.692394 2.66545
Normal: -0.368739 0.196405 0.908547
UV: 0.676468 0.400991

Position: -0.77205 0.0143188 3.14897
Normal: -0.475321 0.338071 0.812267
UV: 0.372448 0.400991

Position: -0.0751891 0.12906 3.52664
Normal: -0.352318 0.472748 0.807701
UV: 0.213121 0.209856

Position: -0.541638 -0.293039 3.42937
Normal: -0.489783 0.358047 0.794931
UV: 0.222471 0.400991

Position: -0.305602 0.436418 3.24624
Normal: -0.337278 0.453261 0.825105
UV: 0.364451 0.209856

Position: -1.01622 0.339971 2.88823
Normal: -0.435103 0.283906 0.854449
UV: 0.523724 0.400991

Position: -0.549772 0.762072 2.9855
Normal: -0.295732 0.398143 0.868346
UV: 0.518653 0.209856

Position: 0.230071 0.766637 3.14518
Normal: -0.187787 0.553043 0.811714
UV: 0.370388 0.0190091

Position: 0.460483 0.459279 3.42558
Normal: -0.203047 0.57249 0.794372
UV: 0.220428 0.0190091

Position: -0.0140986 1.09229 2.88444
Normal: -0.146814 0.499459 0.853807
UV: 0.521647 0.0190091

Position: -0.0840108 -1.35694 2.77033
Normal: -0.0141515 -0.404436 0.914457
UV: 0.674382 0.0190091

Position: 0.58858 -1.12418 2.8828
Normal: 0.151005 -0.334308 0.930288
UV: 0.674698 0.209856

Position: 0.125273 -1.82228 2.60954
Normal: -0.0418966 -0.339941 0.939513
UV: 0.817634 0.0190091

Position: 0.851552 -1.70893 2.68469
Normal: 0.122838 -0.271045 0.954697
UV: 0.856732 0.209856

Position: 1.41973 -1.24181 2.60787
Normal: 0.283287 -0.19362 0.939287
UV: 0.819698 0.400991

Position: 1.21045 -0.77647 2.76866
Normal: 0.312843 -0.257041 0.914363
UV: 0.676468 0.400991

Position: 0.00828568 0.162861 3.72505
Normal: 0.235899 -0.524732 0.817929
UV: 0.213121 0.209856

Position: 0.81168 0.108353 3.30052
Normal: 0.385517 -0.419766 0.821689
UV: 0.372448 0.400991

Position: 0.18981 -0.23936 3.41465
Normal: 0.226048 -0.501957 0.83483
UV: 0.364451 0.209856

Position: 0.630156 0.510572 3.61091
Normal: 0.395256 -0.442715 0.804845
UV: 0.222471 0.400991

Position: 1.00355 -0.317127 3.0128
Normal: 0.35822 -0.357565 0.862453
UV: 0.523724 0.400991

Position: 0.381682 -0.664838 3.12694
Normal: 0.197663 -0.438528 0.876711
UV: 0.518653 0.209856

Position: -0.664306 -0.069899 3.61258
Normal: 0.0694902 -0.589615 0.804689
UV: 0.220428 0.0190091

Position: -0.482782 -0.472118 3.30219
Normal: 0.0588899 -0.567121 0.821527
UV: 0.370388 0.0190091

Position: -0.29091 -0.897598 3.01447
Normal: 0.0306699 -0.505317 0.862388
UV: 0.521647 0.0190091

Position: -1.95516 0.792285 2.19211
Normal: -0.307165 0.178877 0.934694
UV: 0.817634 0.0190091

Position: -1.44779 0.805443 2.35809
Normal: -0.377287 0.178137 0.908803
UV: 0.674382 0.0190091

Position: -1.49583 0.0956657 2.47637
Normal: -0.377168 -0.00149267 0.926144
UV: 0.674698 0.209856

Position: -2.13345 0.0791586 2.27175
Normal: -0.307947 0.000346371 0.951403
UV: 0.856732 0.209856

Position: -1.92188 -0.625943 2.20339
Normal: -0.298826 -0.178229 0.937517
UV: 0.819698 0.400991

Position: -1.41451 -0.612784 2.36937
Normal: -0.368916 -0.18119 0.911631
UV: 0.676468 0.400991

Position: -0.0985577 0.134931 3.33294
Normal: -0.58534 -0.00732207 0.810755
UV: 0.213121 0.209856

Position: -0.453197 -0.58613 2.91107
Normal: -0.546879 -0.186068 0.816274
UV: 0.372448 0.400991

Position: -0.534514 0.122319 3.01808
Normal: -0.560599 -0.00657751 0.828061
UV: 0.364451 0.209856

Position: -0.0172413 -0.573519 3.22593
Normal: -0.571696 -0.186311 0.799032
UV: 0.222471 0.400991

Position: -0.914977 -0.599178 2.61862
Normal: -0.4791 -0.18461 0.858127
UV: 0.523724 0.400991

Position: -0.996295 0.109272 2.72563
Normal: -0.49125 -0.00460827 0.871007
UV: 0.518653 0.209856

Position: -0.0505179 0.844708 3.21465
Normal: -0.580038 0.171955 0.796233
UV: 0.220428 0.0190091

Position: -0.486474 0.832097 2.89979
Normal: -0.555237 0.173149 0.813468
UV: 0.370388 0.0190091

Position: -0.948254 0.81905 2.60734
Normal: -0.487482 0.175536 0.855306
UV: 0.521647 0.0190091

Position: -2.45822 -0.0158694 1.6535
Normal: -0.281087 0.0381369 0.958924
UV: 0.817634 0.0190091

Position: -1.56884 -0.602352 1.93753
Normal: -0.276569 -0.117459 0.953789
UV: 0.674698 0.209856

Position: -2.30943 -0.941873 1.7357
Normal: -0.223886 -0.093351 0.970134
UV: 0.856732 0.209856

Position: -1.86892 0.254329 1.81725
Normal: -0.337385 0.0149238 0.941249
UV: 0.674382 0.0190091

Position: -1.70779 -1.66317 1.6682
Normal: -0.162091 -0.222832 0.961287
UV: 0.819698 0.400991

Position: -1.11849 -1.39297 1.83195
Normal: -0.216379 -0.250309 0.943677
UV: 0.676468 0.400991

Position: -0.00193508 -0.878623 2.36944
Normal: -0.359336 -0.32167 0.876017
UV: 0.372448 0.400991

Position: 0.0540639 0.145986 2.78797
Normal: -0.448266 -0.196317 0.872076
UV: 0.213121 0.209856

Position: 0.504413 -0.644634 2.68238
Normal: -0.380212 -0.331864 0.863311
UV: 0.222471 0.400991

Position: -0.452286 -0.0880024 2.47502
Normal: -0.426262 -0.186258 0.885217
UV: 0.364451 0.209856

Position: -0.538282 -1.12604 2.07901
Normal: -0.303161 -0.293747 0.906535
UV: 0.523724 0.400991

Position: -0.988632 -0.335417 2.18459
Normal: -0.36763 -0.159274 0.916231
UV: 0.518653 0.209856

Position: -0.752365 0.768677 2.35474
Normal: -0.484633 -0.0471285 0.873447
UV: 0.370388 0.0190091

Position: -0.246017 1.00267 2.66769
Normal: -0.505925 -0.0563718 0.860734
UV: 0.220428 0.0190091

Position: -1.28871 0.521262 2.06432
Normal: -0.426894 -0.0226108 0.904019
UV: 0.521647 0.0190091

Position: 1.82932 -1.71594 2.06145
Normal: 0.167004 -0.216162 0.961969
UV: 0.817634 0.0190091

Position: 1.64604 -0.661196 2.33028
Normal: 0.276828 -0.106689 0.954978
UV: 0.674698 0.209856

Position: 2.40217 -0.972525 2.1308
Normal: 0.223577 -0.0846065 0.971007
UV: 0.856732 0.209856

Position: 1.22759 -1.46818 2.22334
Normal: 0.222069 -0.241353 0.944687
UV: 0.674382 0.0190091

Position: 2.51719 -0.0415522 2.04902
Normal: 0.275478 0.0485048 0.960083
UV: 0.819698 0.400991

Position: 1.91547 0.206211 2.2109
Normal: 0.332126 0.0275406 0.942833
UV: 0.676468 0.400991

Position: 0.771631 0.677984 2.74484
Normal: 0.480615 -0.0286578 0.876463
UV: 0.372448 0.400991

Position: -0.0176672 0.025236 3.17556
Normal: 0.450164 -0.178697 0.874883
UV: 0.213121 0.209856

Position: 0.251764 0.892642 3.05618
Normal: 0.50213 -0.0370562 0.863998
UV: 0.222471 0.400991

Position: 0.502201 -0.189423 2.86422
Normal: 0.42805 -0.169326 0.887751
UV: 0.364451 0.209856

Position: 1.32162 0.451032 2.45612
Normal: 0.422392 -0.00645372 0.90639
UV: 0.523724 0.400991

Position: 1.05219 -0.416376 2.57551
Normal: 0.368843 -0.144771 0.918149
UV: 0.518653 0.209856

Position: 0.0837593 -0.996408 2.75728
Normal: 0.366936 -0.306654 0.878249
UV: 0.370388 0.0190091

Position: -0.436107 -0.781748 3.06862
Normal: 0.388046 -0.31595 0.865792
UV: 0.220428 0.0190091

Position: 0.633744 -1.22336 2.46856
Normal: 0.310047 -0.281126 0.908207
UV: 0.521647 0.0190091

Position: -0.910149 -1.64135 1.40638
Normal: -0.140226 -0.279509 0.949848
UV: 0.674382 0.0190091

Position: 0.0478727 -1.72776 1.52152
Normal: -0.00197267 -0.278266 0.960502
UV: 0.674698 0.209856

Position: -0.909365 -2.33018 1.24705
Normal: -0.137741 -0.221026 0.965492
UV: 0.817634 0.0190091

Position: 0.0488267 -2.59337 1.32525
Normal: -0.00182025 -0.223007 0.974815
UV: 0.856732 0.209856

Position: 1.00867 -2.33176 1.25037
Normal: 0.133809 -0.220857 0.966083
UV: 0.819698 0.400991

Position: 1.00789 -1.64293 1.4097
Normal: 0.136241 -0.27911 0.950545
UV: 0.676468 0.400991

Position: 0.0424402 0.175782 2.35976
Normal: -0.00231053 -0.461238 0.887274
UV: 0.213121 0.209856

Position: 1.00454 -0.334073 1.93879
Normal: 0.141967 -0.433453 0.889923
UV: 0.372448 0.400991

Position: 0.0445257 -0.418912 2.05062
Normal: -0.00201945 -0.437469 0.899231
UV: 0.364451 0.209856

Position: 1.00245 0.260619 2.24793
Normal: 0.14263 -0.456123 0.878412
UV: 0.222471 0.400991

Position: 1.00641 -0.963323 1.6524
Normal: 0.139786 -0.372483 0.917451
UV: 0.523724 0.400991

Position: 0.0463976 -1.04816 1.76423
Normal: -0.00200622 -0.374674 0.927154
UV: 0.518653 0.209856

Position: -0.913497 -0.332496 1.93548
Normal: -0.145996 -0.434036 0.888987
UV: 0.370388 0.0190091

Position: -0.915583 0.262196 2.24461
Normal: -0.146653 -0.456651 0.877476
UV: 0.220428 0.0190091

Position: -0.911625 -0.961745 1.64909
Normal: -0.143812 -0.373015 0.916612
UV: 0.521647 0.0190091

Position: -1.37322 1.50797 0.901789
Normal: -0.21985 0.210976 0.952447
UV: 0.856732 0.209856

Position: -0.726668 1.90249 0.826452
Normal: -0.097385 0.334422 0.937378
UV: 0.817634 0.0190091

Position: -0.89468 1.05885 1.10998
Normal: -0.269215 0.257207 0.928099
UV: 0.674698 0.209856

Position: -0.345883 1.54513 0.995263
Normal: -0.14668 0.382414 0.912274
UV: 0.674382 0.0190091

Position: -1.72712 0.837973 0.831298
Normal: -0.335679 0.0810312 0.938485
UV: 0.819698 0.400991

Position: -1.34634 0.480609 1.00011
Normal: -0.386791 0.127175 0.913356
UV: 0.676468 0.400991

Position: -0.624904 -0.195774 1.54719
Normal: -0.515255 0.246502 0.820822
UV: 0.372448 0.400991

Position: 0.153908 0.0759432 1.97437
Normal: -0.419192 0.39754 0.816235
UV: 0.213121 0.209856

Position: -0.297749 -0.502294 1.8645
Normal: -0.532958 0.263515 0.804062
UV: 0.222471 0.400991

Position: -0.173247 0.382464 1.65706
Normal: -0.401146 0.380762 0.833128
UV: 0.364451 0.209856

Position: -0.971446 0.129033 1.25216
Normal: -0.466416 0.200624 0.861514
UV: 0.523724 0.400991

Position: -0.51979 0.70727 1.36203
Normal: -0.351036 0.333859 0.874821
UV: 0.518653 0.209856

Position: 0.375551 0.868741 1.54235
Normal: -0.274135 0.502772 0.819799
UV: 0.370388 0.0190091

Position: 0.702706 0.562222 1.85965
Normal: -0.292298 0.519316 0.80304
UV: 0.220428 0.0190091

Position: 0.0290084 1.19355 1.24731
Normal: -0.225138 0.457068 0.860466
UV: 0.521647 0.0190091

Position: 0.094844 -0.221424 0.208047
Normal: -0.110296 -0.90151 0.418467
UV: 0.169348 0.901773

Position: 0.0347791 -0.0886767 0.549239
Normal: -0.550654 -0.818506 0.163791
UV: 0.103119 0.850944

Position: 0.143424 -0.130655 0.556811
Normal: -0.0930429 -0.984278 0.150132
UV: 0.164529 0.850944

Position: -0.0472641 -0.16664 0.200261
Normal: -0.495797 -0.744335 0.447382
UV: 0.0973481 0.901773

Position: 0.245152 -0.197704 0.217804
Normal: 0.367664 -0.857607 0.359629
UV: 0.229184 0.901773

Position: 0.258296 -0.112558 0.566483
Normal: 0.411904 -0.900688 0.138189
UV: 0.217099 0.850944

Position: -0.0385271 0.00213001 0.545796
Normal: -0.89981 -0.398391 0.177837
UV: 0.056068 0.850944

Position: -0.176079 -0.0626972 0.196514
Normal: -0.804089 -0.353187 0.478226
UV: 0.0425574 0.901773

Position: -0.166971 0.102618 0.197865
Normal: -0.888233 0.137248 0.438412
UV: 0.0973481 0.901773

Position: -0.0568535 0.117433 0.547404
Normal: -0.977881 0.14187 0.153692
UV: 0.103119 0.850944

Position: -0.112494 0.244944 0.203895
Normal: -0.746618 0.528685 0.4038
UV: 0.169348 0.901773

Position: -0.0152879 0.226337 0.553633
Normal: -0.7943 0.592664 0.133555
UV: 0.164529 0.850944

Position: 0.00573905 0.340811 0.213011
Normal: -0.393098 0.853545 0.341958
UV: 0.229184 0.901773

Position: 0.0750317 0.299662 0.562814
Normal: -0.393733 0.91147 0.119155
UV: 0.217099 0.850944

Position: 0.0750317 0.299662 0.562814
Normal: -0.393733 0.91147 0.119155
UV: 0.056068 0.850944

Position: 0.156047 0.36453 0.222768
Normal: 0.086928 0.956756 0.2776
UV: 0.0973481 0.901773

Position: 0.189904 0.31776 0.572486
Normal: 0.0959043 0.989905 0.104357
UV: 0.103119 0.850944

Position: 0.00573905 0.340811 0.213011
Normal: -0.393098 0.853545 0.341958
UV: 0.0425574 0.901773

Position: 0.298155 0.309747 0.230553
Normal: 0.477364 0.853399 0.209367
UV: 0.169348 0.901773

Position: 0.305085 0.278827 0.593343
Normal: 0.459596 0.882682 0.0982034
UV: 0.164529 0.850944

Position: 0.440073 0.211839 0.25423
Normal: 0.850241 0.500588 0.162791
UV: 0.229184 0.901773

Position: 0.417942 0.205674 0.603452
Normal: 0.847191 0.518226 0.117083
UV: 0.217099 0.850944

Position: 0.436268 0.0903705 0.601844
Normal: 0.97333 -0.190819 0.127341
UV: 0.164529 0.850944

Position: 0.463948 0.0611887 0.252901
Normal: 0.964511 -0.177527 0.195456
UV: 0.169348 0.901773

Position: 0.348616 -0.0392324 0.575663
Normal: 0.741046 -0.659484 0.126218
UV: 0.103119 0.850944

Position: 0.363385 -0.101837 0.226919
Normal: 0.725353 -0.627432 0.283182
UV: 0.0973481 0.901773

Position: 0.258296 -0.112558 0.566483
Normal: 0.411904 -0.900688 0.138189
UV: 0.056068 0.850944

Position: 0.245152 -0.197704 0.217804
Normal: 0.367664 -0.857607 0.359629
UV: 0.0425574 0.901773

Position: 0.0140747 -0.0688383 2.2563
Normal: -0.0886162 -0.995855 0.020508
UV: 0.152279 0.609875

Position: -0.0464992 -0.0482448 2.26004
Normal: -0.573018 -0.819516 -0.00663344
UV: 0.115178 0.609875

Position: 0.0791962 -0.0573241 2.25084
Normal: 0.402448 -0.913917 0.0528234
UV: 0.189828 0.609875

Position: -0.0862965 -0.00106305 2.26105
Normal: -0.913447 -0.406435 -0.0205985
UV: 0.0785647 0.609875

Position: -0.0946522 0.0600661 2.25907
Normal: -0.992239 0.123241 -0.0165616
UV: 0.115178 0.609875

Position: -0.0693283 0.118761 2.25463
Normal: -0.798807 0.601576 0.00369688
UV: 0.152279 0.609875

Position: -0.0171092 0.159297 2.24891
Normal: -0.409154 0.911846 0.0336185
UV: 0.189828 0.609875

Position: 0.0480109 0.170811 2.24345
Normal: 0.0746315 0.99505 0.0656097
UV: 0.115178 0.609875

Position: -0.0171092 0.159297 2.24891
Normal: -0.409154 0.911846 0.0336185
UV: 0.0785647 0.609875

Position: 0.108586 0.150217 2.23972
Normal: 0.514742 0.852206 0.0937311
UV: 0.152279 0.609875

Position: 0.148382 0.103035 2.2387
Normal: 0.882462 0.454962 0.119458
UV: 0.189828 0.609875

Position: 0.156738 0.0419068 2.24068
Normal: 0.978838 -0.17137 0.111844
UV: 0.152279 0.609875

Position: 0.131414 -0.0167892 2.24512
Normal: 0.768404 -0.634735 0.0816497
UV: 0.115178 0.609875

Position: 0.0791962 -0.0573241 2.25084
Normal: 0.402448 -0.913917 0.0528234
UV: 0.0785647 0.609875

Position: 0.27601 -0.364142 -0.0769937
Normal: 0.330166 -0.80608 0.491147
UV: 0.0277191 0.947526

Position: 0.459716 -0.215546 -0.0773582
Normal: 0.700573 -0.5854 0.40805
UV: 0.086383 0.947526

Position: 0.544513 0.00499094 -0.0786192
Normal: 0.939786 -0.168947 0.297083
UV: 0.180983 0.947526

Position: 0.50768 0.238375 -0.08044
Normal: 0.854974 0.450213 0.25754
UV: 0.238064 0.947526

Position: 0.359087 0.422072 -0.0823319
Normal: 0.492535 0.802036 0.337856
UV: 0.180983 0.947526

Position: 0.138548 0.50686 -0.0837884
Normal: 0.0722108 0.905441 0.418284
UV: 0.086383 0.947526

Position: -0.0948426 0.470021 -0.084419
Normal: -0.38095 0.793297 0.474929
UV: 0.0277191 0.947526

Position: -0.0948426 0.470021 -0.084419
Normal: -0.38095 0.793297 0.474929
UV: 0.238064 0.947526

Position: -0.278548 0.321425 -0.0840545
Normal: -0.69774 0.481833 0.530091
UV: 0.180983 0.947526

Position: -0.363346 0.100888 -0.0827928
Normal: -0.83067 0.113117 0.545153
UV: 0.086383 0.947526

Position: -0.326513 -0.132496 -0.0809729
Normal: -0.759963 -0.333104 0.55812
UV: 0.0277191 0.947526

Position: -0.17792 -0.316193 -0.0790806
Normal: -0.475625 -0.683956 0.553159
UV: 0.086383 0.947526

Position: 0.27601 -0.364142 -0.0769937
Normal: 0.330166 -0.80608 0.491147
UV: 0.238064 0.947526

Position: 0.0426185 -0.400982 -0.0776243
Normal: -0.112971 -0.831913 0.543284
UV: 0.180983 0.947526

Position: 0.0300471 -0.00752586 3.84237
Normal: 0.788208 -0.614412 0.035025
UV: 0.121467 0.383434

Position: -0.00472425 -0.0345687 3.84495
Normal: 0.402105 -0.914909 0.0353833
UV: 0.0955608 0.383434

Position: 0.0469147 0.031563 3.83931
Normal: 0.989968 -0.137315 0.0332787
UV: 0.148131 0.383434

Position: 0.0413773 0.0722731 3.8366
Normal: 0.913267 0.406249 0.0301007
UV: 0.17478 0.383434

Position: 0.0148604 0.103711 3.83727
Normal: 0.561164 0.82737 0.0235374
UV: 0.148131 0.383434

Position: -0.0255021 0.117432 3.83976
Normal: 0.0717165 0.997259 0.0181737
UV: 0.121467 0.383434

Position: -0.0688937 0.109761 3.84339
Normal: -0.410089 0.911901 0.0162105
UV: 0.0955608 0.383434

Position: -0.0688937 0.109761 3.84339
Normal: -0.410089 0.911901 0.0162105
UV: 0.17478 0.383434

Position: -0.103792 0.0827581 3.84357
Normal: -0.793284 0.608597 0.0176247
UV: 0.148131 0.383434

Position: -0.12077 0.0435727 3.84414
Normal: -0.990945 0.132504 0.0216914
UV: 0.121467 0.383434

Position: -0.115208 0.00274581 3.84494
Normal: -0.913537 -0.405846 0.0272005
UV: 0.0955608 0.383434

Position: -0.0885965 -0.0287087 3.84575
Normal: -0.565705 -0.82399 0.0319158
UV: 0.121467 0.383434

Position: -0.00472425 -0.0345687 3.84495
Normal: 0.402105 -0.914909 0.0353833
UV: 0.17478 0.383434

Position: -0.0481344 -0.0423287 3.84636
Normal: -0.0797854 -0.996205 0.0347796
UV: 0.148131 0.383434

Position: 0.0597008 0.110847 6.72902
Normal: 0.0348465 0.0283184 0.998991
UV: 0.134516 0.0540984

Position: 0.411163 -0.440655 5.03266
Normal: 0.361037 -0.484552 0.796782
UV: 0.817634 0.0190091

Position: 0.436022 -0.112009 5.22126
Normal: 0.553137 -0.333164 0.763571
UV: 0.674698 0.209856

Position: 0.639028 -0.230285 5.05844
Normal: 0.489688 -0.296039 0.820102
UV: 0.856732 0.209856

Position: 0.249965 -0.346757 5.16391
Normal: 0.422926 -0.518634 0.743069
UV: 0.674382 0.0190091

Position: 0.713454 0.0711775 5.03697
Normal: 0.592468 -0.0921748 0.800303
UV: 0.819698 0.400991

Position: 0.552256 0.165075 5.16822
Normal: 0.652524 -0.129196 0.746673
UV: 0.676468 0.400991

Position: 0.271223 0.327364 5.53904
Normal: 0.787577 -0.220217 0.575523
UV: 0.372448 0.400991

Position: 0.0349676 0.119121 5.79744
Normal: 0.711957 -0.425409 0.558698
UV: 0.213121 0.209856

Position: 0.151202 0.396205 5.7444
Normal: 0.803794 -0.232353 0.547656
UV: 0.222471 0.400991

Position: 0.154989 0.0502797 5.59207
Normal: 0.696061 -0.416066 0.585139
UV: 0.364451 0.209856

Position: 0.40276 0.251622 5.34358
Normal: 0.740442 -0.187037 0.645571
UV: 0.523724 0.400991

Position: 0.286527 -0.025462 5.39662
Normal: 0.646467 -0.387387 0.657277
UV: 0.518653 0.209856

Position: -0.0310687 -0.184468 5.53472
Normal: 0.569057 -0.590764 0.571989
UV: 0.370388 0.0190091

Position: -0.151089 -0.115627 5.74008
Normal: 0.587692 -0.59874 0.544177
UV: 0.220428 0.0190091

Position: 0.100469 -0.260209 5.33927
Normal: 0.516755 -0.566409 0.641985
UV: 0.521647 0.0190091

Position: 0.561878 0.561983 5.27298
Normal: 0.461246 0.341095 0.819089
UV: 0.817634 0.0190091

Position: 0.482402 0.383658 5.39306
Normal: 0.489626 0.408756 0.770185
UV: 0.674382 0.0190091

Position: 0.23451 0.545455 5.46421
Normal: 0.295146 0.520789 0.801042
UV: 0.674698 0.209856

Position: 0.334654 0.769833 5.31545
Normal: 0.263413 0.451606 0.852447
UV: 0.856732 0.209856

Position: 0.0280631 0.821826 5.30054
Normal: 0.053152 0.537948 0.8413
UV: 0.819698 0.400991

Position: -0.0514133 0.643499 5.42062
Normal: 0.0845341 0.603543 0.792837
UV: 0.676468 0.400991

Position: -0.186912 0.321149 5.77156
Normal: 0.162671 0.75618 0.633822
UV: 0.372448 0.400991

Position: 0.0421581 0.0816466 6.01189
Normal: 0.372983 0.698878 0.61029
UV: 0.213121 0.209856

Position: -0.243765 0.179691 5.9683
Normal: 0.173223 0.775232 0.607462
UV: 0.222471 0.400991

Position: 0.099012 0.223104 5.81515
Normal: 0.36448 0.680884 0.635257
UV: 0.364451 0.209856

Position: -0.123964 0.473791 5.58548
Normal: 0.134074 0.701973 0.69947
UV: 0.523724 0.400991

Position: 0.16196 0.375746 5.62907
Normal: 0.340563 0.624546 0.702822
UV: 0.518653 0.209856

Position: 0.290049 -0.0801508 5.94075
Normal: 0.554199 0.591617 0.585536
UV: 0.220428 0.0190091

Position: 0.346903 0.0613065 5.74401
Normal: 0.548003 0.570679 0.611571
UV: 0.370388 0.0190091

Position: 0.409851 0.213948 5.55792
Normal: 0.528597 0.512212 0.676922
UV: 0.521647 0.0190091

Position: 0.105726 -0.425084 5.8703
Normal: 0.163796 -0.545907 0.821679
UV: 0.817634 0.0190091

Position: 0.0283696 -0.303841 5.96708
Normal: 0.203676 -0.604722 0.769953
UV: 0.674382 0.0190091

Position: 0.23205 -0.197181 5.99653
Normal: 0.399671 -0.489882 0.774777
UV: 0.674698 0.209856

Position: 0.329555 -0.34977 5.87652
Normal: 0.358728 -0.42775 0.829665
UV: 0.856732 0.209856

Position: 0.47378 -0.16591 5.84449
Normal: 0.536397 -0.286065 0.794006
UV: 0.819698 0.400991

Position: 0.396424 -0.0446683 5.94127
Normal: 0.573758 -0.347456 0.741672
UV: 0.676468 0.400991

Position: 0.266486 0.172364 6.21752
Normal: 0.651976 -0.494382 0.574903
UV: 0.372448 0.400991

Position: 0.0482502 0.114412 6.42634
Normal: 0.498944 -0.648819 0.574533
UV: 0.213121 0.209856

Position: 0.212624 0.266925 6.37108
Normal: 0.660527 -0.513411 0.547826
UV: 0.222471 0.400991

Position: 0.102113 0.0198512 6.27278
Normal: 0.488302 -0.633176 0.600541
UV: 0.364451 0.209856

Position: 0.326545 0.0699101 6.07164
Normal: 0.625704 -0.441316 0.643222
UV: 0.523724 0.400991

Position: 0.162171 -0.0826034 6.1269
Normal: 0.457929 -0.582971 0.671153
UV: 0.518653 0.209856

Position: -0.15543 0.00775145 6.39689
Normal: 0.312681 -0.755927 0.575157
UV: 0.220428 0.0190091

Position: -0.101568 -0.0868088 6.24333
Normal: 0.300066 -0.739432 0.602662
UV: 0.370388 0.0190091

Position: -0.04151 -0.189263 6.09745
Normal: 0.265301 -0.692012 0.671368
UV: 0.521647 0.0190091

Position: -1.02967 -0.0504342 4.57827
Normal: -0.514965 -0.111871 0.84988
UV: 0.817634 0.0190091

Position: -0.621257 -0.247585 4.79979
Normal: -0.456725 -0.347909 0.818756
UV: 0.674698 0.209856

Position: -0.892676 -0.437215 4.61172
Normal: -0.393619 -0.303442 0.867748
UV: 0.856732 0.209856

Position: -0.813915 0.100238 4.73019
Normal: -0.574453 -0.155715 0.80359
UV: 0.674382 0.0190091

Position: -0.570975 -0.688975 4.56292
Normal: -0.251514 -0.479744 0.840587
UV: 0.819698 0.400991

Position: -0.355219 -0.538304 4.71484
Normal: -0.313315 -0.520764 0.794128
UV: 0.676468 0.400991

Position: 0.0379787 -0.268689 5.1668
Normal: -0.463622 -0.611589 0.641103
UV: 0.372448 0.400991

Position: -0.0544957 0.139465 5.50668
Normal: -0.620065 -0.46127 0.634625
UV: 0.213121 0.209856

Position: 0.211542 -0.151253 5.42174
Normal: -0.483387 -0.622261 0.615733
UV: 0.222471 0.400991

Position: -0.22806 0.0220281 5.25174
Normal: -0.603324 -0.449359 0.658845
UV: 0.364451 0.209856

Position: -0.148685 -0.395951 4.92641
Normal: -0.408975 -0.580088 0.704441
UV: 0.523724 0.400991

Position: -0.414724 -0.105233 5.01136
Normal: -0.551562 -0.413757 0.724282
UV: 0.518653 0.209856

Position: -0.247153 0.487287 5.43709
Normal: -0.7292 -0.278864 0.624901
UV: 0.220428 0.0190091

Position: -0.420717 0.369851 5.18215
Normal: -0.712124 -0.264304 0.650402
UV: 0.370388 0.0190091

Position: -0.607381 0.24259 4.94176
Normal: -0.663306 -0.224567 0.713859
UV: 0.521647 0.0190091

Position: 0.653787 -0.759488 4.03374
Normal: 0.280366 -0.425899 0.860235
UV: 0.817634 0.0190091

Position: 0.659891 -0.306471 4.25603
Normal: 0.472846 -0.277235 0.836395
UV: 0.674698 0.209856

Position: 0.950578 -0.477863 4.07778
Normal: 0.405382 -0.237476 0.882763
UV: 0.856732 0.209856

Position: 0.422677 -0.623219 4.17786
Normal: 0.345937 -0.462397 0.816405
UV: 0.674382 0.0190091

Position: 1.05272 -0.0817941 4.03284
Normal: 0.509477 -0.0367604 0.859699
UV: 0.819698 0.400991

Position: 0.821606 0.0544752 4.17697
Normal: 0.573172 -0.0764727 0.815859
UV: 0.676468 0.400991

Position: 0.397793 0.304637 4.61476
Normal: 0.721822 -0.176835 0.669105
UV: 0.372448 0.400991

Position: 0.0481656 0.0546948 4.94251
Normal: 0.648119 -0.380618 0.6596
UV: 0.213121 0.209856

Position: 0.209881 0.41564 4.86345
Normal: 0.740447 -0.190563 0.644534
UV: 0.222471 0.400991

Position: 0.236078 -0.056309 4.69382
Normal: 0.629845 -0.369855 0.68301
UV: 0.364451 0.209856

Position: 0.59938 0.185608 4.3811
Normal: 0.668851 -0.139732 0.730146
UV: 0.523724 0.400991

Position: 0.437665 -0.175338 4.46016
Normal: 0.574267 -0.337055 0.746064
UV: 0.518653 0.209856

Position: -0.00113601 -0.373057 4.61565
Normal: 0.505663 -0.543953 0.669642
UV: 0.370388 0.0190091

Position: -0.189048 -0.262053 4.86434
Normal: 0.526681 -0.553626 0.645062
UV: 0.220428 0.0190091

Position: 0.200451 -0.492086 4.38199
Normal: 0.447582 -0.515522 0.73069
UV: 0.521647 0.0190091

Position: -0.362213 -0.960124 3.31027
Normal: -0.188615 -0.458889 0.868242
UV: 0.674382 0.0190091

Position: 0.115341 -0.954771 3.41603
Normal: 0.0335131 -0.450296 0.89225
UV: 0.674698 0.209856

Position: -0.327087 -1.30382 3.17128
Normal: -0.198578 -0.38137 0.902842
UV: 0.817634 0.0190091

Position: 0.15943 -1.3866 3.24486
Normal: 0.0253312 -0.368995 0.929086
UV: 0.856732 0.209856

Position: 0.622817 -1.21183 3.18195
Normal: 0.247699 -0.337855 0.908019
UV: 0.819698 0.400991

Position: 0.587691 -0.868141 3.32094
Normal: 0.253565 -0.415638 0.87347
UV: 0.676468 0.400991

Position: 0.0130042 0.00122474 4.15152
Normal: 0.0560288 -0.667351 0.742632
UV: 0.213121 0.209856

Position: 0.517951 -0.211551 3.78492
Normal: 0.262342 -0.606966 0.75018
UV: 0.372448 0.400991

Position: 0.0456013 -0.29818 3.88001
Normal: 0.0537414 -0.644149 0.76301
UV: 0.364451 0.209856

Position: 0.485354 0.0878532 4.05643
Normal: 0.262689 -0.632319 0.728812
UV: 0.222471 0.400991

Position: 0.551903 -0.527717 3.53358
Normal: 0.260046 -0.53706 0.80246
UV: 0.523724 0.400991

Position: 0.0795534 -0.614347 3.62867
Normal: 0.0463904 -0.574545 0.817157
UV: 0.518653 0.209856

Position: -0.46455 -0.00413043 4.04576
Normal: -0.152738 -0.672952 0.723745
UV: 0.220428 0.0190091

Position: -0.431953 -0.303535 3.77425
Normal: -0.157736 -0.648089 0.745051
UV: 0.370388 0.0190091

Position: -0.398 -0.619701 3.52291
Normal: -0.170073 -0.57917 0.797268
UV: 0.521647 0.0190091

Position: 1.77195 1.08614 1.88398
Normal: 0.234829 0.145604 0.96107
UV: 0.856732 0.209856

Position: 1.93667 0.377468 1.83066
Normal: 0.307408 0.00192168 0.951576
UV: 0.817634 0.0190091

Position: 1.2125 0.791502 2.06377
Normal: 0.290757 0.17587 0.940495
UV: 0.674698 0.209856

Position: 1.49142 0.143084 1.97651
Normal: 0.365654 0.030992 0.930235
UV: 0.674382 0.0190091

Position: 1.27264 1.60927 1.80606
Normal: 0.155559 0.286487 0.945371
UV: 0.819698 0.400991

Position: 0.827388 1.37488 1.9519
Normal: 0.212891 0.318868 0.92358
UV: 0.676468 0.400991

Position: -0.0246172 0.153896 2.81817
Normal: 0.465912 0.269508 0.842788
UV: 0.213121 0.209856

Position: -0.0224446 0.935274 2.42889
Normal: 0.361306 0.400025 0.842281
UV: 0.372448 0.400991

Position: 0.362673 0.351893 2.54076
Normal: 0.44471 0.257269 0.857931
UV: 0.364451 0.209856

Position: -0.409734 0.737277 2.70631
Normal: 0.382492 0.411164 0.827432
UV: 0.222471 0.400991

Position: 0.386664 1.14581 2.1713
Normal: 0.303835 0.369004 0.878362
UV: 0.523724 0.400991

Position: 0.771781 0.562429 2.28316
Normal: 0.385465 0.226041 0.894607
UV: 0.518653 0.209856

Position: 0.641586 -0.296526 2.4535
Normal: 0.515984 0.107586 0.849815
UV: 0.370388 0.0190091

Position: 0.254297 -0.494524 2.73091
Normal: 0.537356 0.118779 0.834949
UV: 0.220428 0.0190091

Position: 1.05069 -0.0859903 2.19591
Normal: 0.457954 0.0778137 0.885564
UV: 0.521647 0.0190091

Position: -0.678135 0.875467 3.96075
Normal: -0.373597 0.371844 0.849798
UV: 0.674382 0.0190091

Position: -0.87184 0.438744 4.06586
Normal: -0.457103 0.165187 0.873939
UV: 0.674698 0.209856

Position: -1.00039 0.980797 3.80892
Normal: -0.29961 0.34971 0.887658
UV: 0.817634 0.0190091

Position: -1.27686 0.571184 3.87854
Normal: -0.380518 0.139976 0.914119
UV: 0.856732 0.209856

Position: -1.3032 0.0757946 3.8215
Normal: -0.441855 -0.0766099 0.893809
UV: 0.819698 0.400991

Position: -0.980947 -0.029536 3.97334
Normal: -0.514437 -0.0507722 0.856024
UV: 0.676468 0.400991

Position: -0.372436 -0.225115 4.46169
Normal: -0.689132 0.0174392 0.724426
UV: 0.372448 0.400991

Position: 0.0120007 0.155684 4.83679
Normal: -0.66011 0.231136 0.714724
UV: 0.213121 0.209856

Position: -0.097107 -0.312594 4.74427
Normal: -0.711757 0.0271616 0.701901
UV: 0.222471 0.400991

Position: -0.263329 0.243164 4.55421
Normal: -0.638637 0.224005 0.736183
UV: 0.364451 0.209856

Position: -0.664448 -0.131733 4.19864
Normal: -0.625942 -0.00822988 0.779827
UV: 0.523724 0.400991

Position: -0.555341 0.336547 4.29116
Normal: -0.573709 0.203081 0.793483
UV: 0.518653 0.209856

Position: 0.205706 0.592408 4.73169
Normal: -0.579335 0.424434 0.695863
UV: 0.220428 0.0190091

Position: -0.0696234 0.679887 4.44911
Normal: -0.555274 0.419165 0.718312
UV: 0.370388 0.0190091

Position: -0.361635 0.77327 4.18605
Normal: -0.488914 0.403047 0.773638
UV: 0.521647 0.0190091

Position: 0.427131 1.5409 2.9596
Normal: 0.153519 0.424434 0.892349
UV: 0.817634 0.0190091

Position: -0.0602929 1.13074 3.23855
Normal: -0.0821933 0.480716 0.873015
UV: 0.674698 0.209856

Position: -0.130339 1.60757 3.02556
Normal: -0.0703628 0.40102 0.913363
UV: 0.856732 0.209856

Position: 0.482822 1.16153 3.13223
Normal: 0.140361 0.500314 0.854391
UV: 0.674382 0.0190091

Position: -0.641004 1.37823 2.94869
Normal: -0.290891 0.357048 0.887637
UV: 0.819698 0.400991

Position: -0.585313 0.998865 3.12131
Normal: -0.300164 0.433643 0.849621
UV: 0.676468 0.400991

Position: -0.483103 0.28377 3.67558
Normal: -0.316113 0.620466 0.717701
UV: 0.372448 0.400991

Position: 0.0872622 0.0924836 4.11336
Normal: -0.112867 0.691695 0.713316
UV: 0.213121 0.209856

Position: -0.437758 -0.0393949 3.99612
Normal: -0.317255 0.645032 0.695185
UV: 0.222471 0.400991

Position: 0.0419175 0.41565 3.79281
Normal: -0.109505 0.669356 0.734827
UV: 0.364451 0.209856

Position: -0.531732 0.626748 3.3771
Normal: -0.311417 0.552441 0.773194
UV: 0.523724 0.400991

Position: -0.00671142 0.758628 3.49433
Normal: -0.0998256 0.601926 0.792288
UV: 0.518653 0.209856

Position: 0.630377 0.123275 4.00704
Normal: 0.0968695 0.707729 0.699812
UV: 0.220428 0.0190091

Position: 0.585032 0.44644 3.68649
Normal: 0.102644 0.68383 0.722386
UV: 0.370388 0.0190091

Position: 0.536403 0.789418 3.38802
Normal: 0.11729 0.617299 0.777936
UV: 0.521647 0.0190091

Position: 1.1504 -1.5064 2.63094
Normal: 0.137292 -0.300692 0.943788
UV: 0.817634 0.0190091

Position: 1.1802 -0.663239 2.89523
Normal: 0.298526 -0.196075 0.934043
UV: 0.674698 0.209856

Position: 1.71105 -1.0304 2.70277
Normal: 0.241832 -0.156833 0.95756
UV: 0.856732 0.209856

Position: 0.727896 -1.21416 2.78724
Normal: 0.194054 -0.341088 0.919784
UV: 0.674382 0.0190091

Position: 1.95449 -0.33769 2.61928
Normal: 0.338679 -0.00798575 0.940868
UV: 0.819698 0.400991

Position: 1.532 -0.0454448 2.77558
Normal: 0.396471 -0.0468848 0.916849
UV: 0.676468 0.400991

Position: 0.725354 0.514761 3.29886
Normal: 0.542117 -0.148517 0.827075
UV: 0.372448 0.400991

Position: 0.00587811 0.152994 3.72499
Normal: 0.468994 -0.314445 0.825329
UV: 0.213121 0.209856

Position: 0.357677 0.770787 3.60534
Normal: 0.562211 -0.163122 0.810747
UV: 0.222471 0.400991

Position: 0.373555 -0.103034 3.41851
Normal: 0.448712 -0.300327 0.841701
UV: 0.364451 0.209856

Position: 1.1137 0.24474 3.01528
Normal: 0.486864 -0.109398 0.8666
UV: 0.523724 0.400991

Position: 0.761905 -0.373054 3.13493
Normal: 0.391901 -0.260835 0.882258
UV: 0.518653 0.209856

Position: -0.0787461 -0.653953 3.31052
Normal: 0.340193 -0.442001 0.830002
UV: 0.370388 0.0190091

Position: -0.446423 -0.397926 3.617
Normal: 0.360863 -0.455769 0.813666
UV: 0.220428 0.0190091

Position: 0.309603 -0.923974 3.02693
Normal: 0.284279 -0.403845 0.869537
UV: 0.521647 0.0190091

Position: -1.98116 -0.36349 2.19119
Normal: -0.359314 0.00315406 0.933211
UV: 0.817634 0.0190091

Position: -1.2299 -0.713591 2.48163
Normal: -0.324684 -0.187195 0.927113
UV: 0.674698 0.209856

Position: -1.76369 -1.06361 2.27905
Normal: -0.266289 -0.149759 0.952188
UV: 0.856732 0.209856

Position: -1.55646 -0.0848796 2.35553
Normal: -0.4191 -0.0344301 0.907287
UV: 0.674382 0.0190091

Position: -1.21566 -1.55746 2.21775
Normal: -0.165319 -0.296884 0.940494
UV: 0.819698 0.400991

Position: -0.790959 -1.27885 2.38209
Normal: -0.2233 -0.335958 0.915024
UV: 0.676468 0.400991

Position: 0.0102412 -0.744525 2.92064
Normal: -0.37241 -0.433665 0.820515
UV: 0.372448 0.400991

Position: -0.0664145 0.0650175 3.33358
Normal: -0.499777 -0.300867 0.812221
UV: 0.213121 0.209856

Position: 0.372524 -0.500246 3.23405
Normal: -0.393518 -0.447027 0.803312
UV: 0.222471 0.400991

Position: -0.428698 -0.179262 3.02017
Normal: -0.478547 -0.287979 0.829494
UV: 0.364451 0.209856

Position: -0.37413 -1.00211 2.62972
Normal: -0.315394 -0.396708 0.862061
UV: 0.523724 0.400991

Position: -0.813071 -0.436847 2.72925
Normal: -0.42042 -0.249772 0.872274
UV: 0.518653 0.209856

Position: -0.755258 0.449449 2.89408
Normal: -0.568431 -0.132394 0.812008
UV: 0.370388 0.0190091

Position: -0.392975 0.693728 3.20749
Normal: -0.588869 -0.146451 0.79485
UV: 0.220428 0.0190091

Position: -1.13963 0.191865 2.60316
Normal: -0.511884 -0.0946352 0.853826
UV: 0.521647 0.0190091

Position: -1.40344 2.38662 1.2919
Normal: -0.141041 0.22056 0.965122
UV: 0.856732 0.209856

Position: -0.507491 2.66966 1.22018
Normal: -0.0190261 0.296247 0.954922
UV: 0.817634 0.0190091

Position: -0.964167 1.70804 1.5094
Normal: -0.17278 0.269024 0.947509
UV: 0.674698 0.209856

Position: -0.158014 2.12976 1.3964
Normal: -0.0500859 0.348488 0.935974
UV: 0.674382 0.0190091

Position: -2.02555 1.68361 1.22354
Normal: -0.260506 0.140042 0.955262
UV: 0.819698 0.400991

Position: -1.67607 1.1437 1.39976
Normal: -0.295847 0.189877 0.936174
UV: 0.676468 0.400991

Position: -1.01828 0.124961 1.96085
Normal: -0.387335 0.320689 0.864367
UV: 0.372448 0.400991

Position: -0.00939633 0.228587 2.39413
Normal: -0.276062 0.426955 0.861104
UV: 0.213121 0.209856

Position: -0.721305 -0.335752 2.28449
Normal: -0.400387 0.339743 0.851037
UV: 0.222471 0.400991

Position: -0.306375 0.689302 2.07049
Normal: -0.26256 0.406945 0.874905
UV: 0.364451 0.209856

Position: -1.33364 0.613729 1.6591
Normal: -0.351565 0.269305 0.896592
UV: 0.523724 0.400991

Position: -0.621734 1.17807 1.76874
Normal: -0.227404 0.352955 0.907585
UV: 0.518653 0.209856

Position: 0.499778 1.11102 1.95749
Normal: -0.132499 0.484923 0.864462
UV: 0.370388 0.0190091

Position: 0.796756 0.650308 2.28113
Normal: -0.14468 0.504634 0.851124
UV: 0.220428 0.0190091

Position: 0.184419 1.59979 1.65573
Normal: -0.100032 0.431462 0.896568
UV: 0.521647 0.0190091

Position: -1.96498 -1.33537 1.66354
Normal: -0.262427 -0.104434 0.959284
UV: 0.817634 0.0190091

Position: -0.904177 -1.36714 1.95028
Normal: -0.17731 -0.234379 0.955839
UV: 0.674698 0.209856

Position: -1.35762 -2.0471 1.75396
Normal: -0.144637 -0.186599 0.971731
UV: 0.856732 0.209856

Position: -1.60422 -0.794207 1.8229
Normal: -0.298455 -0.153828 0.941946
UV: 0.674382 0.0190091

Position: -0.467812 -2.3522 1.69141
Normal: -0.0247432 -0.264322 0.964117
UV: 0.819698 0.400991

Position: -0.107056 -1.81103 1.85078
Normal: -0.0565369 -0.315683 0.947179
UV: 0.676468 0.400991

Position: 0.572142 -0.778089 2.37986
Normal: -0.141049 -0.450853 0.881383
UV: 0.372448 0.400991

Position: 0.081718 0.136561 2.78848
Normal: -0.283174 -0.390659 0.875898
UV: 0.213121 0.209856

Position: 0.878838 -0.307337 2.68898
Normal: -0.153559 -0.470524 0.868923
UV: 0.222471 0.400991

Position: -0.22498 -0.334191 2.47937
Normal: -0.268976 -0.37107 0.888796
UV: 0.364451 0.209856

Position: 0.246496 -1.27535 2.09349
Normal: -0.107784 -0.397785 0.911126
UV: 0.523724 0.400991

Position: -0.550626 -0.831456 2.19299
Normal: -0.233109 -0.317479 0.919167
UV: 0.518653 0.209856

Position: -0.925022 0.238737 2.35199
Normal: -0.391571 -0.283852 0.875271
UV: 0.370388 0.0190091

Position: -0.618326 0.709489 2.6611
Normal: -0.404817 -0.302809 0.862803
UV: 0.220428 0.0190091

Position: -1.25067 -0.258528 2.06561
Normal: -0.355194 -0.232713 0.905363
UV: 0.521647 0.0190091

Position: 2.38791 0.336137 2.13612
Normal: 0.257465 0.057767 0.964559
UV: 0.856732 0.209856

Position: 2.29658 -0.500628 2.07452
Normal: 0.278467 -0.0987491 0.955356
UV: 0.817634 0.0190091

Position: 1.66241 0.226969 2.33457
Normal: 0.319351 0.0674722 0.945231
UV: 0.674698 0.209856

Position: 1.71919 -0.587423 2.23558
Normal: 0.342464 -0.0907908 0.935134
UV: 0.674382 0.0190091

Position: 2.04358 1.09978 2.04605
Normal: 0.229894 0.213475 0.949514
UV: 0.819698 0.400991

Position: 1.46619 1.01299 2.20711
Normal: 0.293774 0.225014 0.929013
UV: 0.676468 0.400991

Position: 0.3656 0.853839 2.73942
Normal: 0.459228 0.252731 0.851609
UV: 0.372448 0.400991

Position: 0.0606797 -0.00274309 3.17746
Normal: 0.514363 0.0972433 0.852042
UV: 0.213121 0.209856

Position: -0.13553 0.783277 3.05
Normal: 0.482858 0.256317 0.837347
UV: 0.222471 0.400991

Position: 0.561812 0.0678181 2.86688
Normal: 0.490228 0.0931178 0.866606
UV: 0.364451 0.209856

Position: 0.895221 0.929537 2.4515
Normal: 0.395074 0.242312 0.886116
UV: 0.523724 0.400991

Position: 1.09143 0.143516 2.57896
Normal: 0.424262 0.0833008 0.9017
UV: 0.518653 0.209856

Position: 0.6186 -0.746573 2.76789
Normal: 0.508533 -0.0688705 0.858284
UV: 0.370388 0.0190091

Position: 0.117469 -0.817133 3.07847
Normal: 0.532302 -0.065479 0.844018
UV: 0.220428 0.0190091

Position: 1.14822 -0.670874 2.47996
Normal: 0.444169 -0.0775277 0.892582
UV: 0.521647 0.0190091

Position: 0.566663 -2.51727 1.2742
Normal: -0.00496298 -0.250127 0.9682
UV: 0.817634 0.0190091

Position: 0.205773 -1.92532 1.42702
Normal: 0.0231715 -0.300948 0.953359
UV: 0.674382 0.0190091

Position: 1.06754 -1.49833 1.54001
Normal: 0.140057 -0.228308 0.963462
UV: 0.674698 0.209856

Position: 1.52096 -2.24211 1.35192
Normal: 0.111694 -0.181272 0.97707
UV: 0.856732 0.209856

Position: 2.20594 -1.5215 1.27165
Normal: 0.225957 -0.109295 0.967987
UV: 0.819698 0.400991

Position: 1.84505 -0.929549 1.42447
Normal: 0.257892 -0.157462 0.953256
UV: 0.676468 0.400991

Position: 0.0620789 0.145511 2.36014
Normal: 0.233878 -0.383695 0.893353
UV: 0.213121 0.209856

Position: 1.15468 0.199781 1.94113
Normal: 0.341999 -0.285655 0.89523
UV: 0.372448 0.400991

Position: 0.377167 -0.369001 2.05667
Normal: 0.221973 -0.363364 0.904817
UV: 0.364451 0.209856

Position: 0.839589 0.714291 2.2446
Normal: 0.354208 -0.30459 0.884173
UV: 0.222471 0.400991

Position: 1.48724 -0.343806 1.66073
Normal: 0.308858 -0.234991 0.921621
UV: 0.523724 0.400991

Position: 0.709729 -0.912587 1.77626
Normal: 0.189684 -0.310117 0.931583
UV: 0.518653 0.209856

Position: -0.799685 -0.28148 2.24715
Normal: 0.109287 -0.454491 0.884022
UV: 0.220428 0.0190091

Position: -0.484598 -0.795991 1.94368
Normal: 0.0981661 -0.434972 0.895077
UV: 0.370388 0.0190091

Position: -0.152036 -1.33958 1.66328
Normal: 0.0685005 -0.382112 0.921574
UV: 0.521647 0.0190091

Position: -1.01809 1.08495 0.977525
Normal: -0.329365 0.262586 0.906955
UV: 0.674382 0.0190091

Position: -1.23515 0.386441 1.10004
Normal: -0.368714 0.0917239 0.925006
UV: 0.674698 0.209856

Position: -1.52767 1.18912 0.804956
Normal: -0.26207 0.247408 0.932796
UV: 0.817634 0.0190091

Position: -1.8756 0.517445 0.887129
Normal: -0.302469 0.0779918 0.949963
UV: 0.856732 0.209856

Position: -1.82906 -0.240129 0.82642
Normal: -0.333555 -0.0934871 0.938084
UV: 0.819698 0.400991

Position: -1.31948 -0.344305 0.998988
Normal: -0.401208 -0.0809845 0.9124
UV: 0.676468 0.400991

Position: 0.164028 0.108017 1.97469
Normal: -0.569896 0.132714 0.810929
UV: 0.213121 0.209856

Position: -0.356349 -0.536868 1.55314
Normal: -0.573055 -0.0470104 0.818167
UV: 0.372448 0.400991

Position: -0.272022 0.193877 1.65419
Normal: -0.545819 0.127625 0.828127
UV: 0.364451 0.209856

Position: 0.0797018 -0.622727 1.87364
Normal: -0.597055 -0.0418817 0.801106
UV: 0.222471 0.400991

Position: -0.818659 -0.445051 1.25472
Normal: -0.507459 -0.0603045 0.859563
UV: 0.523724 0.400991

Position: -0.734334 0.285693 1.35577
Normal: -0.478582 0.11408 0.870601
UV: 0.518653 0.209856

Position: 0.381086 0.806526 1.85217
Normal: -0.525044 0.30267 0.795436
UV: 0.220428 0.0190091

Position: -0.0549639 0.892385 1.53168
Normal: -0.500966 0.298177 0.81248
UV: 0.370388 0.0190091

Position: -0.517275 0.984202 1.23325
Normal: -0.435322 0.285053 0.853955
UV: 0.521647 0.0190091

Position: 1.43976 0.796415 0.620024
Normal: 0.370934 0.232043 0.899202
UV: 0.674382 0.0190091

Position: 0.93411 1.21946 0.718543
Normal: 0.216784 0.347008 0.912464
UV: 0.674698 0.209856

Position: 1.70932 1.17831 0.45158
Normal: 0.328894 0.173074 0.928372
UV: 0.817634 0.0190091

Position: 1.2728 1.69947 0.510816
Normal: 0.175002 0.28748 0.941663
UV: 0.856732 0.209856

Position: 0.634392 1.92269 0.424015
Normal: 0.0143202 0.391458 0.920085
UV: 0.819698 0.400991

Position: 0.364828 1.54079 0.592459
Normal: 0.0558759 0.451028 0.890759
UV: 0.676468 0.400991

Position: 0.184134 0.174231 1.58181
Normal: 0.339054 0.519358 0.784417
UV: 0.213121 0.209856

Position: -0.150247 0.820901 1.13879
Normal: 0.163478 0.597626 0.784932
UV: 0.372448 0.400991

Position: 0.419037 0.499575 1.26487
Normal: 0.325111 0.499397 0.80306
UV: 0.364451 0.209856

Position: -0.385148 0.495559 1.45573
Normal: 0.178747 0.617306 0.766148
UV: 0.222471 0.400991

Position: 0.0977888 1.16618 0.844123
Normal: 0.122444 0.542927 0.830806
UV: 0.523724 0.400991

Position: 0.667072 0.844858 0.970207
Normal: 0.284655 0.442723 0.850275
UV: 0.518653 0.209856

Position: 0.689782 -0.248818 1.48329
Normal: 0.48771 0.402529 0.774667
UV: 0.220428 0.0190091

Position: 0.924684 0.0765251 1.16635
Normal: 0.473967 0.381718 0.793503
UV: 0.370388 0.0190091

Position: 1.17272 0.421808 0.871689
Normal: 0.435594 0.325174 0.839356
UV: 0.521647 0.0190091

Position: -1.57696 -0.361413 3.29414
Normal: -0.419042 0.00162003 0.907965
UV: 0.817634 0.0190091

Position: -0.988913 -0.644117 3.56604
Normal: -0.383734 -0.189301 0.903832
UV: 0.674698 0.209856

Position: -1.40657 -0.926837 3.37526
Normal: -0.32657 -0.151871 0.932892
UV: 0.856732 0.209856

Position: -1.24484 -0.136379 3.44849
Normal: -0.477656 -0.0362484 0.877799
UV: 0.674382 0.0190091

Position: -0.961008 -1.32528 3.35324
Normal: -0.224486 -0.298943 0.927491
UV: 0.819698 0.400991

Position: -0.628895 -1.10025 3.50759
Normal: -0.280935 -0.338269 0.898137
UV: 0.676468 0.400991

Position: -0.0161189 -0.668976 3.98289
Normal: -0.424493 -0.43668 0.793168
UV: 0.372448 0.400991

Position: -0.103263 -0.0157651 4.31257
Normal: -0.552583 -0.303307 0.77631
UV: 0.213121 0.209856

Position: 0.256755 -0.471901 4.25412
Normal: -0.444616 -0.450156 0.774388
UV: 0.222471 0.400991

Position: -0.376137 -0.212841 4.04134
Normal: -0.532101 -0.290726 0.795202
UV: 0.364451 0.209856

Position: -0.308135 -0.876839 3.72863
Normal: -0.369916 -0.399453 0.838808
UV: 0.523724 0.400991

Position: -0.668154 -0.420704 3.78708
Normal: -0.476423 -0.252277 0.842245
UV: 0.518653 0.209856

Position: -0.632069 0.294896 3.92378
Normal: -0.62162 -0.134683 0.771653
UV: 0.370388 0.0190091

Position: -0.359195 0.491972 4.19502
Normal: -0.641002 -0.148776 0.752982
UV: 0.220428 0.0190091

Position: -0.924085 0.0870331 3.66953
Normal: -0.56749 -0.0967422 0.817677
UV: 0.521647 0.0190091


[INDEX_DATA]
0 2 1
1 3 0
4 5 1
1 2 4
6 8 7
7 9 6
10 11 8
8 6 10
1 5 11
11 10 1
6 9 12
12 13 6
10 6 13
13 14 10
1 10 14
14 3 1
15 17 16
16 18 15
19 20 16
16 17 19
21 23 22
22 24 21
25 26 23
23 21 25
16 20 26
26 25 16
21 24 27
27 28 21
25 21 28
28 29 25
16 25 29
29 18 16
30 32 31
31 32 33
31 33 34
34 35 31
36 38 37
37 38 39
38 41 40
40 39 38
41 31 35
35 40 41
42 43 36
36 43 38
43 44 38
38 44 41
44 30 41
41 30 31
45 47 46
46 47 48
46 48 49
49 50 46
51 53 52
54 52 53
55 51 56
52 56 51
50 55 46
56 46 55
57 58 52
52 54 57
58 59 56
56 52 58
59 45 56
56 45 46
60 62 61
62 60 63
62 63 64
64 65 62
66 68 67
69 67 68
70 66 71
67 71 66
71 62 65
65 70 71
72 73 67
67 69 72
73 74 71
71 67 73
61 71 74
61 62 71
75 77 76
76 77 78
76 78 79
79 80 76
81 83 82
82 84 81
84 86 85
85 81 84
86 76 80
80 85 86
87 88 82
82 88 84
88 89 84
84 89 86
89 75 86
86 75 76
90 92 91
91 92 93
91 93 94
94 95 91
96 98 97
97 99 96
98 101 100
100 97 98
101 91 95
95 100 101
102 103 96
96 103 98
103 104 98
98 104 101
104 90 101
101 90 91
105 107 106
107 108 106
109 110 107
107 105 109
111 113 112
112 114 111
115 111 114
114 116 115
110 115 116
116 107 110
114 112 117
112 118 117
116 114 119
114 117 119
107 116 108
116 119 108
120 122 121
121 123 120
124 125 121
121 122 124
126 128 127
127 129 126
130 126 129
129 131 130
125 130 131
131 121 125
132 129 127
127 133 132
134 131 129
129 132 134
123 121 131
131 134 123
135 137 136
137 138 136
139 140 137
137 135 139
141 143 142
142 144 141
145 141 144
144 146 145
140 145 146
146 137 140
144 142 147
142 148 147
146 144 149
144 147 149
137 146 138
146 149 138
150 152 151
151 152 153
151 153 154
154 155 151
156 158 157
157 159 156
158 161 160
160 157 158
161 151 155
155 160 161
162 163 156
156 163 158
163 164 158
158 164 161
164 150 161
161 150 151
165 167 166
167 165 168
167 168 169
169 170 167
171 173 172
172 174 171
173 176 175
175 172 173
176 167 170
170 175 176
177 178 171
178 173 171
179 173 178
179 176 173
166 176 179
166 167 176
180 182 181
181 183 180
184 185 181
181 182 184
186 188 187
187 189 186
190 186 189
189 191 190
185 190 191
191 181 185
192 189 187
187 193 192
194 191 189
189 192 194
183 181 191
191 194 183
195 197 196
196 198 195
199 200 196
196 197 199
201 203 202
202 204 201
205 201 204
204 206 205
200 205 206
206 196 200
207 204 202
202 208 207
209 206 204
204 207 209
198 196 206
206 209 198
210 212 211
211 212 213
211 213 214
214 215 211
216 218 217
217 219 216
218 221 220
220 217 218
221 211 215
215 220 221
218 216 222
223 222 216
221 218 224
222 224 218
224 210 221
221 210 211
225 227 226
227 228 226
229 230 227
227 225 229
231 233 232
232 234 231
235 231 234
234 236 235
230 235 236
236 227 230
234 232 237
232 238 237
236 234 239
234 237 239
227 236 228
236 239 228
240 242 241
241 243 240
244 245 242
242 240 244
243 241 246
246 247 243
246 249 248
248 247 246
249 251 250
250 248 249
251 253 252
252 250 251
254 256 255
255 257 254
256 259 258
258 255 256
259 261 260
260 258 259
260 261 262
262 263 260
263 262 264
264 265 263
266 267 265
265 264 266
268 269 241
241 242 268
270 268 242
242 245 270
269 271 246
246 241 269
246 271 272
272 249 246
249 272 273
273 251 249
251 273 274
274 253 251
254 276 275
275 256 254
256 275 277
277 259 256
259 277 278
278 261 259
278 279 262
262 261 278
280 264 262
262 279 280
280 281 266
266 264 280
265 267 282
282 283 265
284 263 265
265 283 284
285 260 263
263 284 285
286 258 260
260 285 286
287 255 258
258 286 287
257 255 287
287 288 257
250 252 289
289 290 250
291 248 250
250 290 291
247 248 291
291 292 247
243 247 292
292 293 243
294 244 240
240 295 294
295 240 243
243 293 295
296 297 281
281 280 296
298 296 280
280 279 298
299 298 279
279 278 299
300 299 278
278 277 300
275 301 300
300 277 275
276 302 301
301 275 276
273 304 303
303 274 273
272 305 304
304 273 272
271 306 305
305 272 271
307 306 271
271 269 307
308 309 268
268 270 308
309 307 269
269 268 309
300 301 310
301 302 310
299 300 310
296 298 310
298 299 310
309 308 310
297 296 310
307 309 310
305 306 310
306 307 310
303 304 310
304 305 310
311 313 312
312 314 311
315 316 312
312 313 315
317 319 318
318 320 317
321 317 320
320 322 321
316 321 322
322 312 316
323 318 324
318 323 320
325 322 320
320 323 325
314 312 322
322 325 314
326 328 327
328 326 329
328 329 330
330 331 328
332 334 333
333 335 332
336 332 335
335 337 336
337 328 331
331 336 337
335 333 338
338 339 335
339 340 335
340 337 335
327 337 340
327 328 337
341 343 342
343 341 344
343 344 345
345 346 343
347 349 348
348 350 347
351 347 350
350 352 351
352 343 346
346 351 352
353 354 348
348 354 350
354 355 350
350 355 352
355 342 352
342 343 352
356 358 357
357 359 356
360 361 357
357 358 360
362 364 363
363 365 362
366 362 365
365 367 366
361 366 367
367 357 361
368 369 363
363 369 365
369 370 365
365 370 367
359 357 367
367 370 359
371 373 372
372 374 371
375 376 372
372 373 375
377 379 378
378 380 377
381 377 380
380 382 381
376 381 382
382 372 376
383 380 378
378 384 383
385 382 380
380 383 385
374 372 382
382 385 374
386 388 387
387 388 389
387 389 390
390 391 387
392 394 393
393 395 392
394 397 396
396 393 394
397 387 391
391 396 397
398 399 392
392 399 394
399 400 394
394 400 397
400 386 397
397 386 387
401 403 402
404 402 403
403 401 405
405 406 403
407 409 408
408 410 407
409 412 411
411 408 409
412 403 406
406 411 412
409 407 413
414 413 407
412 409 415
413 415 409
403 412 404
415 404 412
416 418 417
417 418 419
417 419 420
420 421 417
422 424 423
423 425 422
425 427 426
426 422 425
427 417 421
421 426 427
428 429 423
423 429 425
429 430 425
425 430 427
430 416 427
427 416 417
431 433 432
432 434 431
435 436 432
432 433 435
437 439 438
438 440 437
441 437 440
440 442 441
436 441 442
442 432 436
443 444 440
440 438 443
445 442 440
440 444 445
434 432 442
442 445 434
446 448 447
447 449 446
450 451 447
447 448 450
452 454 453
453 455 452
456 452 455
455 457 456
451 456 457
457 447 451
458 455 453
453 459 458
460 457 455
455 458 460
449 447 457
457 460 449
461 463 462
462 464 461
465 466 462
462 463 465
467 469 468
468 470 467
471 467 470
470 472 471
466 471 472
472 462 466
473 470 468
468 474 473
475 472 470
470 473 475
464 462 472
472 475 464
476 478 477
478 479 477
480 481 478
478 476 480
482 484 483
483 485 482
486 482 485
485 487 486
481 486 487
487 478 481
485 483 488
483 489 488
487 485 490
485 488 490
478 487 479
487 490 479
491 493 492
492 494 491
495 496 492
492 493 495
497 499 498
498 500 497
501 497 500
500 502 501
496 501 502
502 492 496
503 500 498
498 504 503
505 502 500
500 503 505
494 492 502
502 505 494
506 508 507
508 509 507
510 511 508
508 506 510
512 514 513
513 515 512
516 512 515
515 517 516
511 516 517
517 508 511
515 513 518
513 519 518
517 515 520
515 518 520
508 517 509
517 520 509
521 523 522
523 521 524
523 524 525
525 526 523
527 529 528
528 530 527
529 532 531
531 528 529
532 523 526
526 531 532
533 534 527
534 529 527
535 529 534
535 532 529
522 532 535
522 523 532
536 538 537
537 538 539
537 539 540
540 541 537
542 544 543
543 545 542
544 547 546
546 543 544
547 537 541
541 546 547
548 549 542
542 549 544
549 550 544
544 550 547
550 536 547
547 536 537
551 553 552
552 553 554
552 554 555
555 556 552
557 559 558
558 560 557
559 562 561
561 558 559
562 552 556
556 561 562
563 564 557
557 564 559
564 565 559
559 565 562
565 551 562
562 551 552
566 568 567
567 569 566
570 571 567
567 568 570
572 574 573
573 575 572
576 572 575
575 577 576
571 576 577
577 567 571
578 575 573
573 579 578
580 577 575
575 578 580
569 567 577
577 580 569

