^E:\졸업작품 최종 프로젝트 및 릴리즈\COMPLETESERVERMODULE(미끄러짐 있는 서버)\LOBBYSERVER\X64\RELEASE\ TO X64\RELEASE\LOBBYSERVER\LOBBYPROCESS.OBJ|E:\졸업작품 최종 프로젝트 및 릴리즈\COMPLETESERVERMODULE(미끄러짐 있는 서버)\LOBBYSERVER\X64\RELEASE\ TO X64\RELEASE\LOBBYSERVER\LOBBYSERVER.OBJ|E:\졸업작품 최종 프로젝트 및 릴리즈\COMPLETESERVERMODULE(미끄러짐 있는 서버)\LOBBYSERVER\X64\RELEASE\ TO X64\RELEASE\LOBBYSERVER\ROOM.OBJ|E:\졸업작품 최종 프로젝트 및 릴리즈\COMPLETESERVERMODULE(미끄러짐 있는 서버)\LOBBYSERVER\X64\RELEASE\ TO X64\RELEASE\LOBBYSERVER\ROOMMANAGER.OBJ|E:\졸업작품 최종 프로젝트 및 릴리즈\COMPLETESERVERMODULE(미끄러짐 있는 서버)\LOBBYSERVER\X64\RELEASE\ TO X64\RELEASE\LOBBYSERVER\ROOMRATER.OBJ|E:\졸업작품 최종 프로젝트 및 릴리즈\COMPLETESERVERMODULE(미끄러짐 있는 서버)\LOBBYSERVER\X64\RELEASE\ TO X64\RELEASE\LOBBYSERVER\STDAFX.OBJ|E:\졸업작품 최종 프로젝트 및 릴리즈\COMPLETESERVERMODULE(미끄러짐 있는 서버)\LOBBYSERVER\X64\RELEASE\ TO X64\RELEASE\LOBBYSERVER\USER.OBJ|E:\졸업작품 최종 프로젝트 및 릴리즈\COMPLETESERVERMODULE(미끄러짐 있는 서버)\LOBBYSERVER\X64\RELEASE\ TO X64\RELEASE\LOBBYSERVER\USERMANAGER.OBJ|E:\졸업작품 최종 프로젝트 및 릴리즈\COMPLETESERVERMODULE(미끄러짐 있는 서버)\X64\RELEASE\COMPLETESERVERMODULE.LIB
C:\PROGRAM FILES (X86)\MICROSOFT VISUAL STUDIO 14.0\VC\BIN\X86_AMD64\VCTIP.EXE
C:\WINDOWS\SYSTEM32\TZRES.DLL
C:\WINDOWS\GLOBALIZATION\SORTING\SORTDEFAULT.NLS
C:\PROGRAM FILES (X86)\WINDOWS KITS\8.1\LIB\WINV6.3\UM\X64\KERNEL32.LIB
C:\PROGRAM FILES (X86)\WINDOWS KITS\8.1\LIB\WINV6.3\UM\X64\USER32.LIB
C:\PROGRAM FILES (X86)\WINDOWS KITS\8.1\LIB\WINV6.3\UM\X64\GDI32.LIB
C:\PROGRAM FILES (X86)\WINDOWS KITS\8.1\LIB\WINV6.3\UM\X64\WINSPOOL.LIB
C:\PROGRAM FILES (X86)\WINDOWS KITS\8.1\LIB\WINV6.3\UM\X64\COMDLG32.LIB
C:\PROGRAM FILES (X86)\WINDOWS KITS\8.1\LIB\WINV6.3\UM\X64\ADVAPI32.LIB
C:\PROGRAM FILES (X86)\WINDOWS KITS\8.1\LIB\WINV6.3\UM\X64\SHELL32.LIB
C:\PROGRAM FILES (X86)\WINDOWS KITS\8.1\LIB\WINV6.3\UM\X64\OLE32.LIB
C:\PROGRAM FILES (X86)\WINDOWS KITS\8.1\LIB\WINV6.3\UM\X64\OLEAUT32.LIB
C:\PROGRAM FILES (X86)\WINDOWS KITS\8.1\LIB\WINV6.3\UM\X64\UUID.LIB
C:\PROGRAM FILES (X86)\WINDOWS KITS\8.1\LIB\WINV6.3\UM\X64\ODBC32.LIB
C:\PROGRAM FILES (X86)\WINDOWS KITS\8.1\LIB\WINV6.3\UM\X64\ODBCCP32.LIB
E:\졸업작품 최종 프로젝트 및 릴리즈\COMPLETESERVERMODULE(미끄러짐 있는 서버)\LOBBYSERVER\X64\RELEASE\ TO X64\RELEASE\LOBBYSERVER\LOBBYPROCESS.OBJ
E:\졸업작품 최종 프로젝트 및 릴리즈\COMPLETESERVERMODULE(미끄러짐 있는 서버)\LOBBYSERVER\X64\RELEASE\ TO X64\RELEASE\LOBBYSERVER\LOBBYSERVER.OBJ
E:\졸업작품 최종 프로젝트 및 릴리즈\COMPLETESERVERMODULE(미끄러짐 있는 서버)\LOBBYSERVER\X64\RELEASE\ TO X64\RELEASE\LOBBYSERVER\ROOM.OBJ
E:\졸업작품 최종 프로젝트 및 릴리즈\COMPLETESERVERMODULE(미끄러짐 있는 서버)\LOBBYSERVER\X64\RELEASE\ TO X64\RELEASE\LOBBYSERVER\ROOMMANAGER.OBJ
E:\졸업작품 최종 프로젝트 및 릴리즈\COMPLETESERVERMODULE(미끄러짐 있는 서버)\LOBBYSERVER\X64\RELEASE\ TO X64\RELEASE\LOBBYSERVER\ROOMRATER.OBJ
E:\졸업작품 최종 프로젝트 및 릴리즈\COMPLETESERVERMODULE(미끄러짐 있는 서버)\LOBBYSERVER\X64\RELEASE\ TO X64\RELEASE\LOBBYSERVER\STDAFX.OBJ
E:\졸업작품 최종 프로젝트 및 릴리즈\COMPLETESERVERMODULE(미끄러짐 있는 서버)\LOBBYSERVER\X64\RELEASE\ TO X64\RELEASE\LOBBYSERVER\USER.OBJ
E:\졸업작품 최종 프로젝트 및 릴리즈\COMPLETESERVERMODULE(미끄러짐 있는 서버)\LOBBYSERVER\X64\RELEASE\ TO X64\RELEASE\LOBBYSERVER\USERMANAGER.OBJ
E:\졸업작품 최종 프로젝트 및 릴리즈\COMPLETESERVERMODULE(미끄러짐 있는 서버)\X64\RELEASE\COMPLETESERVERMODULE.LIB
C:\PROGRAM FILES (X86)\MICROSOFT VISUAL STUDIO 14.0\VC\BIN\X86_AMD64\C2.DLL
C:\PROGRAM FILES (X86)\WINDOWS KITS\8.1\LIB\WINV6.3\UM\X64\WS2_32.LIB
C:\PROGRAM FILES (X86)\WINDOWS KITS\8.1\LIB\WINV6.3\UM\X64\MSWSOCK.LIB
C:\PROGRAM FILES (X86)\WINDOWS KITS\8.1\LIB\WINV6.3\UM\X64\WINMM.LIB
C:\PROGRAM FILES (X86)\MICROSOFT VISUAL STUDIO 14.0\VC\LIB\AMD64\MSVCPRT.LIB
C:\PROGRAM FILES (X86)\MICROSOFT VISUAL STUDIO 14.0\VC\LIB\AMD64\MSVCRT.LIB
C:\PROGRAM FILES (X86)\MICROSOFT VISUAL STUDIO 14.0\VC\LIB\AMD64\OLDNAMES.LIB
C:\PROGRAM FILES (X86)\MICROSOFT VISUAL STUDIO 14.0\VC\LIB\AMD64\VCRUNTIME.LIB
C:\PROGRAM FILES (X86)\WINDOWS KITS\10\LIB\10.0.10240.0\UCRT\X64\UCRT.LIB
C:\PROGRAM FILES (X86)\MICROSOFT VISUAL STUDIO 14.0\VC\BIN\X86_AMD64\1042\LINKUI.DLL
C:\PROGRAM FILES (X86)\WINDOWS KITS\8.1\BIN\X86\RC.EXE
C:\PROGRAM FILES (X86)\MICROSOFT VISUAL STUDIO 14.0\VC\BIN\CVTRES.EXE
