ObjectType Number Pos_x Pos_y Pos_z Rotation_x Rotation_y Rotation_z Scale_x Scale_y Scale_z
11 0 726 0.5 1370 0 0 0 3000 3000 3000
11 1 1235 0.5 1023 0 0 0 3000 3000 3000
11 2 179 0.5 305 0 0 0 3000 3000 3000
11 3 1696 0.5 290 0 0 0 3000 3000 3000
11 4 2419 0.5 678 0 0 0 3000 3000 3000
11 5 2134 0.5 1499 0 0 0 3000 3000 3000
11 6 2175 0.5 2266 0 0 0 3000 3000 3000
11 7 630 0.5 2379 0 0 0 3000 3000 3000
11 8 1266 0.5 2290 0 0 0 3000 3000 3000
11 9 1234.1 0.5 1800.8 0 0 0 3000 3000 3000