^D:\프로젝트 관리 폴더\TESTSERVERMODULE\COMPLETESERVERMODULE\ROOMSERVER\STDAFX.CPP
/c /I"C:\PROGRAM FILES (X86)\MICROSOFT DIRECTX SDK (JUNE 2010)\INCLUDE" /I"C:\PROGRAM FILES (X86)\VISUAL LEAK DETECTOR\INCLUDE" /Zi /nologo /W3 /WX- /sdl /O2 /Oi /GL /D NDEBUG /D _CONSOLE /D _UNICODE /D UNICODE /Gm- /EHsc /MD /GS /Gy /fp:precise /Zc:wchar_t /Zc:forScope /Zc:inline /Yc"stdafx.h" /Fp"X64\RELEASE\ TO X64\RELEASE\ROOMSERVER\ROOMSERVER.PCH" /Fo"X64\RELEASE\ TO X64\RELEASE\ROOMSERVER\\" /Fd"X64\RELEASE\ TO X64\RELEASE\ROOMSERVER\VC140.PDB" /Gd /TP D:\프로젝트 관리 폴더\TESTSERVERMODULE\COMPLETESERVERMODULE\ROOMSERVER\STDAFX.CPP
^D:\프로젝트 관리 폴더\TESTSERVERMODULE\COMPLETESERVERMODULE\ROOMSERVER\GAMEINROOM.CPP
/c /I"C:\PROGRAM FILES (X86)\MICROSOFT DIRECTX SDK (JUNE 2010)\INCLUDE" /I"C:\PROGRAM FILES (X86)\VISUAL LEAK DETECTOR\INCLUDE" /Zi /nologo /W3 /WX- /sdl /O2 /Oi /GL /D NDEBUG /D _CONSOLE /D _UNICODE /D UNICODE /Gm- /EHsc /MD /GS /Gy /fp:precise /Zc:wchar_t /Zc:forScope /Zc:inline /Yu"stdafx.h" /Fp"X64\RELEASE\ TO X64\RELEASE\ROOMSERVER\ROOMSERVER.PCH" /Fo"X64\RELEASE\ TO X64\RELEASE\ROOMSERVER\\" /Fd"X64\RELEASE\ TO X64\RELEASE\ROOMSERVER\VC140.PDB" /Gd /TP D:\프로젝트 관리 폴더\TESTSERVERMODULE\COMPLETESERVERMODULE\ROOMSERVER\GAMEINROOM.CPP
^D:\프로젝트 관리 폴더\TESTSERVERMODULE\COMPLETESERVERMODULE\ROOMSERVER\PLAYEROBJECT.CPP
/c /I"C:\PROGRAM FILES (X86)\MICROSOFT DIRECTX SDK (JUNE 2010)\INCLUDE" /I"C:\PROGRAM FILES (X86)\VISUAL LEAK DETECTOR\INCLUDE" /Zi /nologo /W3 /WX- /sdl /O2 /Oi /GL /D NDEBUG /D _CONSOLE /D _UNICODE /D UNICODE /Gm- /EHsc /MD /GS /Gy /fp:precise /Zc:wchar_t /Zc:forScope /Zc:inline /Yu"stdafx.h" /Fp"X64\RELEASE\ TO X64\RELEASE\ROOMSERVER\ROOMSERVER.PCH" /Fo"X64\RELEASE\ TO X64\RELEASE\ROOMSERVER\\" /Fd"X64\RELEASE\ TO X64\RELEASE\ROOMSERVER\VC140.PDB" /Gd /TP D:\프로젝트 관리 폴더\TESTSERVERMODULE\COMPLETESERVERMODULE\ROOMSERVER\PLAYEROBJECT.CPP
^D:\프로젝트 관리 폴더\TESTSERVERMODULE\COMPLETESERVERMODULE\ROOMSERVER\ROOMPROCESS.CPP
/c /I"C:\PROGRAM FILES (X86)\MICROSOFT DIRECTX SDK (JUNE 2010)\INCLUDE" /I"C:\PROGRAM FILES (X86)\VISUAL LEAK DETECTOR\INCLUDE" /Zi /nologo /W3 /WX- /sdl /O2 /Oi /GL /D NDEBUG /D _CONSOLE /D _UNICODE /D UNICODE /Gm- /EHsc /MD /GS /Gy /fp:precise /Zc:wchar_t /Zc:forScope /Zc:inline /Yu"stdafx.h" /Fp"X64\RELEASE\ TO X64\RELEASE\ROOMSERVER\ROOMSERVER.PCH" /Fo"X64\RELEASE\ TO X64\RELEASE\ROOMSERVER\\" /Fd"X64\RELEASE\ TO X64\RELEASE\ROOMSERVER\VC140.PDB" /Gd /TP D:\프로젝트 관리 폴더\TESTSERVERMODULE\COMPLETESERVERMODULE\ROOMSERVER\ROOMPROCESS.CPP
^D:\프로젝트 관리 폴더\TESTSERVERMODULE\COMPLETESERVERMODULE\ROOMSERVER\ROOMSERVER.CPP
/c /I"C:\PROGRAM FILES (X86)\MICROSOFT DIRECTX SDK (JUNE 2010)\INCLUDE" /I"C:\PROGRAM FILES (X86)\VISUAL LEAK DETECTOR\INCLUDE" /Zi /nologo /W3 /WX- /sdl /O2 /Oi /GL /D NDEBUG /D _CONSOLE /D _UNICODE /D UNICODE /Gm- /EHsc /MD /GS /Gy /fp:precise /Zc:wchar_t /Zc:forScope /Zc:inline /Yu"stdafx.h" /Fp"X64\RELEASE\ TO X64\RELEASE\ROOMSERVER\ROOMSERVER.PCH" /Fo"X64\RELEASE\ TO X64\RELEASE\ROOMSERVER\\" /Fd"X64\RELEASE\ TO X64\RELEASE\ROOMSERVER\VC140.PDB" /Gd /TP D:\프로젝트 관리 폴더\TESTSERVERMODULE\COMPLETESERVERMODULE\ROOMSERVER\ROOMSERVER.CPP
^D:\프로젝트 관리 폴더\TESTSERVERMODULE\COMPLETESERVERMODULE\ROOMSERVER\GENERATOR.CPP
/c /I"C:\PROGRAM FILES (X86)\MICROSOFT DIRECTX SDK (JUNE 2010)\INCLUDE" /I"C:\PROGRAM FILES (X86)\VISUAL LEAK DETECTOR\INCLUDE" /Zi /nologo /W3 /WX- /sdl /O2 /Oi /GL /D NDEBUG /D _CONSOLE /D _UNICODE /D UNICODE /Gm- /EHsc /MD /GS /Gy /fp:precise /Zc:wchar_t /Zc:forScope /Zc:inline /Yu"stdafx.h" /Fp"X64\RELEASE\ TO X64\RELEASE\ROOMSERVER\ROOMSERVER.PCH" /Fo"X64\RELEASE\ TO X64\RELEASE\ROOMSERVER\\" /Fd"X64\RELEASE\ TO X64\RELEASE\ROOMSERVER\VC140.PDB" /Gd /TP D:\프로젝트 관리 폴더\TESTSERVERMODULE\COMPLETESERVERMODULE\ROOMSERVER\GENERATOR.CPP
