^D:\프로젝트 관리 폴더\TESTSERVERMODULE\COMPLETESERVERMODULE\ROBBYSERVER\STDAFX.CPP
/c /I"C:\PROGRAM FILES (X86)\VISUAL LEAK DETECTOR\INCLUDE" /Zi /nologo /W3 /WX- /sdl /O2 /Oi /GL /D NDEBUG /D _CONSOLE /D _UNICODE /D UNICODE /Gm- /EHsc /MD /GS /Gy /fp:precise /Zc:wchar_t /Zc:forScope /Zc:inline /Yc"stdafx.h" /Fp"X64\RELEASE\ TO X64\RELEASE\ROBBYSERVER\ROBBYSERVER.PCH" /Fo"X64\RELEASE\ TO X64\RELEASE\ROBBYSERVER\\" /Fd"X64\RELEASE\ TO X64\RELEASE\ROBBYSERVER\VC140.PDB" /Gd /TP D:\프로젝트 관리 폴더\TESTSERVERMODULE\COMPLETESERVERMODULE\ROBBYSERVER\STDAFX.CPP
^D:\프로젝트 관리 폴더\TESTSERVERMODULE\COMPLETESERVERMODULE\ROBBYSERVER\ROBBYPROCESS.CPP
/c /I"C:\PROGRAM FILES (X86)\VISUAL LEAK DETECTOR\INCLUDE" /Zi /nologo /W3 /WX- /sdl /O2 /Oi /GL /D NDEBUG /D _CONSOLE /D _UNICODE /D UNICODE /Gm- /EHsc /MD /GS /Gy /fp:precise /Zc:wchar_t /Zc:forScope /Zc:inline /Yu"stdafx.h" /Fp"X64\RELEASE\ TO X64\RELEASE\ROBBYSERVER\ROBBYSERVER.PCH" /Fo"X64\RELEASE\ TO X64\RELEASE\ROBBYSERVER\\" /Fd"X64\RELEASE\ TO X64\RELEASE\ROBBYSERVER\VC140.PDB" /Gd /TP D:\프로젝트 관리 폴더\TESTSERVERMODULE\COMPLETESERVERMODULE\ROBBYSERVER\ROBBYPROCESS.CPP
^D:\프로젝트 관리 폴더\TESTSERVERMODULE\COMPLETESERVERMODULE\ROBBYSERVER\ROBBYSERVER.CPP
/c /I"C:\PROGRAM FILES (X86)\VISUAL LEAK DETECTOR\INCLUDE" /Zi /nologo /W3 /WX- /sdl /O2 /Oi /GL /D NDEBUG /D _CONSOLE /D _UNICODE /D UNICODE /Gm- /EHsc /MD /GS /Gy /fp:precise /Zc:wchar_t /Zc:forScope /Zc:inline /Yu"stdafx.h" /Fp"X64\RELEASE\ TO X64\RELEASE\ROBBYSERVER\ROBBYSERVER.PCH" /Fo"X64\RELEASE\ TO X64\RELEASE\ROBBYSERVER\\" /Fd"X64\RELEASE\ TO X64\RELEASE\ROBBYSERVER\VC140.PDB" /Gd /TP D:\프로젝트 관리 폴더\TESTSERVERMODULE\COMPLETESERVERMODULE\ROBBYSERVER\ROBBYSERVER.CPP
^D:\프로젝트 관리 폴더\TESTSERVERMODULE\COMPLETESERVERMODULE\ROBBYSERVER\ROOM.CPP
/c /I"C:\PROGRAM FILES (X86)\VISUAL LEAK DETECTOR\INCLUDE" /Zi /nologo /W3 /WX- /sdl /O2 /Oi /GL /D NDEBUG /D _CONSOLE /D _UNICODE /D UNICODE /Gm- /EHsc /MD /GS /Gy /fp:precise /Zc:wchar_t /Zc:forScope /Zc:inline /Yu"stdafx.h" /Fp"X64\RELEASE\ TO X64\RELEASE\ROBBYSERVER\ROBBYSERVER.PCH" /Fo"X64\RELEASE\ TO X64\RELEASE\ROBBYSERVER\\" /Fd"X64\RELEASE\ TO X64\RELEASE\ROBBYSERVER\VC140.PDB" /Gd /TP D:\프로젝트 관리 폴더\TESTSERVERMODULE\COMPLETESERVERMODULE\ROBBYSERVER\ROOM.CPP
^D:\프로젝트 관리 폴더\TESTSERVERMODULE\COMPLETESERVERMODULE\ROBBYSERVER\USER.CPP
/c /I"C:\PROGRAM FILES (X86)\VISUAL LEAK DETECTOR\INCLUDE" /Zi /nologo /W3 /WX- /sdl /O2 /Oi /GL /D NDEBUG /D _CONSOLE /D _UNICODE /D UNICODE /Gm- /EHsc /MD /GS /Gy /fp:precise /Zc:wchar_t /Zc:forScope /Zc:inline /Yu"stdafx.h" /Fp"X64\RELEASE\ TO X64\RELEASE\ROBBYSERVER\ROBBYSERVER.PCH" /Fo"X64\RELEASE\ TO X64\RELEASE\ROBBYSERVER\\" /Fd"X64\RELEASE\ TO X64\RELEASE\ROBBYSERVER\VC140.PDB" /Gd /TP D:\프로젝트 관리 폴더\TESTSERVERMODULE\COMPLETESERVERMODULE\ROBBYSERVER\USER.CPP
^D:\프로젝트 관리 폴더\TESTSERVERMODULE\COMPLETESERVERMODULE\ROBBYSERVER\USERMANAGER.CPP
/c /I"C:\PROGRAM FILES (X86)\VISUAL LEAK DETECTOR\INCLUDE" /Zi /nologo /W3 /WX- /sdl /O2 /Oi /GL /D NDEBUG /D _CONSOLE /D _UNICODE /D UNICODE /Gm- /EHsc /MD /GS /Gy /fp:precise /Zc:wchar_t /Zc:forScope /Zc:inline /Yu"stdafx.h" /Fp"X64\RELEASE\ TO X64\RELEASE\ROBBYSERVER\ROBBYSERVER.PCH" /Fo"X64\RELEASE\ TO X64\RELEASE\ROBBYSERVER\\" /Fd"X64\RELEASE\ TO X64\RELEASE\ROBBYSERVER\VC140.PDB" /Gd /TP D:\프로젝트 관리 폴더\TESTSERVERMODULE\COMPLETESERVERMODULE\ROBBYSERVER\USERMANAGER.CPP
