^C:\Users\김한샘\Downloads\졸업작품 최종 프로젝트 및 릴리즈\CompleteServerModule(미끄러짐 있는 서버)\RobbyServer\RobbyServer.vcxproj
C:\Users\김한샘\Downloads\졸업작품 최종 프로젝트 및 릴리즈\CompleteServerModule(미끄러짐 있는 서버)\x64\Release\RobbyServer.ipdb
C:\Users\김한샘\Downloads\졸업작품 최종 프로젝트 및 릴리즈\CompleteServerModule(미끄러짐 있는 서버)\x64\Release\RobbyServer.iobj
